time	V(channelout)	I(I1)
0.000000000000000e+00	0.000000e+00	0.000000e+00
8.818310546875001e-11	3.507671e-11	1.003186e-09
9.200000000000001e-11	5.709969e-09	2.130000e-08
9.314285714285714e-11	6.250396e-09	1.542509e-07
9.428571428571430e-11	6.835815e-09	2.876241e-07
9.542857142857144e-11	7.466227e-09	4.214195e-07
9.657142857142857e-11	8.141633e-09	5.556371e-07
9.771428571428573e-11	8.862031e-09	6.902770e-07
9.885714285714286e-11	9.627423e-09	8.253391e-07
1.000000000000000e-10	1.043781e-08	9.608235e-07
1.050000000000000e-10	1.486427e-08	1.860000e-06
1.075258789062500e-10	1.775207e-08	1.863818e-06
1.100517578125000e-10	2.180362e-08	1.866839e-06
1.125776367187500e-10	2.701892e-08	1.869064e-06
1.151035156250000e-10	3.339798e-08	1.870493e-06
1.176293945312500e-10	4.094078e-08	1.871125e-06
1.201552734374999e-10	4.964734e-08	1.870961e-06
1.226811523437499e-10	5.951764e-08	1.870000e-06
1.239762137276785e-10	6.534967e-08	1.868303e-06
1.252712751116071e-10	7.253214e-08	1.866695e-06
1.265663364955357e-10	8.106506e-08	1.865177e-06
1.278613978794643e-10	9.094843e-08	1.863749e-06
1.291564592633928e-10	1.021822e-07	1.862410e-06
1.304515206473214e-10	1.147665e-07	1.861160e-06
1.317465820312500e-10	1.287012e-07	1.860000e-06
1.335776367187500e-10	1.522233e-07	1.860000e-06
1.354086914062500e-10	1.804899e-07	1.860000e-06
1.372397460937499e-10	2.141698e-07	1.860000e-06
1.398555385044642e-10	2.576688e-07	1.860000e-06
1.424713309151785e-10	3.301408e-07	1.860000e-06
1.450871233258927e-10	4.315856e-07	1.860000e-06
1.477029157366070e-10	5.620034e-07	1.860000e-06
1.503187081473212e-10	7.213940e-07	1.860000e-06
1.529345005580355e-10	9.097576e-07	1.860000e-06
1.555502929687498e-10	1.127094e-06	1.860000e-06
1.577063337053615e-10	1.336096e-06	1.859664e-06
1.598623744419733e-10	1.622754e-06	1.859233e-06
1.620184151785850e-10	1.987069e-06	1.858706e-06
1.641744559151968e-10	2.429041e-06	1.858083e-06
1.663304966518085e-10	2.948669e-06	1.857365e-06
1.684865373884203e-10	3.545954e-06	1.856550e-06
1.706425781250320e-10	4.220896e-06	1.855640e-06
1.725608258928891e-10	4.926829e-06	1.854979e-06
1.744790736607463e-10	5.800245e-06	1.854318e-06
1.763973214286034e-10	6.841143e-06	1.853656e-06
1.783155691964605e-10	8.049524e-06	1.852995e-06
1.802338169643176e-10	9.425387e-06	1.852333e-06
1.821520647321748e-10	1.096873e-05	1.851672e-06
1.840703125000319e-10	1.267956e-05	1.851010e-06
1.859275251116345e-10	1.454946e-05	1.850370e-06
1.877847377232370e-10	1.673934e-05	1.849729e-06
1.896419503348396e-10	1.924919e-05	1.849089e-06
1.914991629464422e-10	2.207901e-05	1.848449e-06
1.933563755580448e-10	2.522881e-05	1.847808e-06
1.952135881696473e-10	2.869858e-05	1.847168e-06
1.970708007812499e-10	3.248832e-05	1.846527e-06
1.989890485491070e-10	3.683289e-05	1.845866e-06
2.009072963169642e-10	4.178753e-05	1.845204e-06
2.028255440848213e-10	4.735222e-05	1.844543e-06
2.047437918526784e-10	5.352697e-05	1.843881e-06
2.066620396205355e-10	6.031178e-05	1.843220e-06
2.085802873883927e-10	6.770665e-05	1.842559e-06
2.104985351562498e-10	7.571158e-05	1.841897e-06
2.130033482142901e-10	8.724272e-05	1.840975e-06
2.155081612723304e-10	1.004526e-04	1.839875e-06
2.180129743303707e-10	1.153413e-04	1.838597e-06
2.205177873884111e-10	1.319088e-04	1.837141e-06
2.230226004464514e-10	1.501550e-04	1.835506e-06
2.255274135044917e-10	1.700800e-04	1.833693e-06
2.280322265625320e-10	1.916838e-04	1.831702e-06
2.317204938616346e-10	2.270945e-04	1.828813e-06
2.354087611607371e-10	2.678539e-04	1.826185e-06
2.390970284598397e-10	3.139618e-04	1.823817e-06
2.427852957589422e-10	3.654185e-04	1.821709e-06
2.464735630580448e-10	4.222238e-04	1.819862e-06
2.501618303571474e-10	4.843777e-04	1.818275e-06
2.538500976562499e-10	5.518803e-04	1.816948e-06
2.590578962053621e-10	6.591692e-04	1.816015e-06
2.642656947544743e-10	7.765949e-04	1.814259e-06
2.694734933035865e-10	9.041575e-04	1.811680e-06
2.746812918526986e-10	1.041857e-03	1.808278e-06
2.798890904018109e-10	1.189693e-03	1.804053e-06
2.850968889509230e-10	1.347666e-03	1.799004e-06
2.903046875000352e-10	1.515776e-03	1.793133e-06
2.960855887277087e-10	1.712207e-03	1.787372e-06
3.018664899553822e-10	1.911134e-03	1.781994e-06
3.076473911830557e-10	2.112555e-03	1.776999e-06
3.134282924107292e-10	2.316472e-03	1.772387e-06
3.192091936384027e-10	2.522884e-03	1.768158e-06
3.249900948660762e-10	2.731791e-03	1.764311e-06
3.307709960937497e-10	2.943194e-03	1.760848e-06
3.318807198660763e-10	2.982766e-03	1.759920e-06
3.329904436384027e-10	3.022224e-03	1.758939e-06
3.341001674107293e-10	3.061567e-03	1.757905e-06
3.352098911830558e-10	3.100796e-03	1.756817e-06
3.363196149553823e-10	3.139911e-03	1.755677e-06
3.374293387277088e-10	3.178912e-03	1.754483e-06
3.385390625000353e-10	3.217798e-03	1.753235e-06
3.417477678571731e-10	3.329598e-03	1.749916e-06
3.449564732143110e-10	3.440052e-03	1.746597e-06
3.481651785714488e-10	3.549161e-03	1.743277e-06
3.513738839285866e-10	3.656923e-03	1.739958e-06
3.545825892857244e-10	3.763340e-03	1.736639e-06
3.577912946428622e-10	3.868410e-03	1.733319e-06
3.610000000000000e-10	3.972135e-03	1.730000e-06
3.613923688616071e-10	3.984703e-03	1.729729e-06
3.617847377232143e-10	3.997249e-03	1.729459e-06
3.621771065848214e-10	4.009774e-03	1.729188e-06
3.625694754464286e-10	4.022277e-03	1.728918e-06
3.629618443080357e-10	4.034758e-03	1.728647e-06
3.633542131696428e-10	4.047218e-03	1.728376e-06
3.637465820312500e-10	4.059656e-03	1.728106e-06
3.674958844866071e-10	4.177358e-03	1.725520e-06
3.712451869419642e-10	4.293288e-03	1.722934e-06
3.749944893973213e-10	4.407446e-03	1.720349e-06
3.787437918526784e-10	4.519832e-03	1.717763e-06
3.824930943080355e-10	4.630446e-03	1.715177e-06
3.862423967633926e-10	4.739287e-03	1.712591e-06
3.899916992187497e-10	4.846356e-03	1.710006e-06
3.900498046875017e-10	4.848026e-03	1.709948e-06
3.914128069196493e-10	4.886540e-03	1.708538e-06
3.927758091517970e-10	4.924840e-03	1.707128e-06
3.941388113839447e-10	4.962928e-03	1.705718e-06
3.955018136160923e-10	5.000802e-03	1.704308e-06
3.968648158482400e-10	5.038462e-03	1.702898e-06
3.982278180803876e-10	5.075909e-03	1.701488e-06
3.995908203125353e-10	5.113143e-03	1.700078e-06
4.023635602678874e-10	5.188263e-03	1.697210e-06
4.051363002232395e-10	5.262417e-03	1.694342e-06
4.079090401785916e-10	5.335607e-03	1.691473e-06
4.106817801339437e-10	5.407832e-03	1.688605e-06
4.134545200892958e-10	5.479092e-03	1.685737e-06
4.162272600446479e-10	5.549387e-03	1.682868e-06
4.190000000000000e-10	5.618718e-03	1.680000e-06
4.191831054687500e-10	5.623277e-03	1.679747e-06
4.201596679687500e-10	5.647354e-03	1.678400e-06
4.211362304687500e-10	5.671292e-03	1.677053e-06
4.221127929687500e-10	5.695092e-03	1.675706e-06
4.230893554687500e-10	5.718752e-03	1.674359e-06
4.240659179687499e-10	5.742273e-03	1.673012e-06
4.250424804687500e-10	5.765654e-03	1.671666e-06
4.260190429687499e-10	5.788897e-03	1.670319e-06
4.473813476562497e-10	6.255066e-03	1.640853e-06
4.479916992187497e-10	6.267119e-03	1.640011e-06
4.480000000000000e-10	6.267309e-03	1.640000e-06
4.490213448660765e-10	6.287199e-03	1.638943e-06
4.500426897321529e-10	6.306867e-03	1.637887e-06
4.510640345982294e-10	6.326313e-03	1.636830e-06
4.520853794643059e-10	6.345537e-03	1.635774e-06
4.531067243303824e-10	6.364539e-03	1.634717e-06
4.541280691964589e-10	6.383320e-03	1.633661e-06
4.551494140625353e-10	6.401878e-03	1.632604e-06
4.765117187500351e-10	6.733123e-03	1.610505e-06
4.770000000000000e-10	6.739434e-03	1.610000e-06
4.771831054687500e-10	6.741801e-03	1.609747e-06
4.778980887276786e-10	6.750829e-03	1.608761e-06
4.786130719866071e-10	6.759738e-03	1.607775e-06
4.793280552455357e-10	6.768529e-03	1.606789e-06
4.800430385044643e-10	6.777202e-03	1.605803e-06
4.807580217633929e-10	6.785756e-03	1.604817e-06
4.814730050223214e-10	6.794193e-03	1.603830e-06
4.821879882812500e-10	6.802510e-03	1.602844e-06
5.053813476562498e-10	7.007292e-03	1.570853e-06
5.059916992187498e-10	7.011115e-03	1.570011e-06
5.060000000000000e-10	7.011194e-03	1.570000e-06
5.067597656250041e-10	7.015751e-03	1.569214e-06
5.075195312500082e-10	7.020197e-03	1.568428e-06
5.082792968750124e-10	7.024533e-03	1.567642e-06
5.090390625000165e-10	7.028758e-03	1.566856e-06
5.097988281250206e-10	7.032873e-03	1.566070e-06
5.105585937500247e-10	7.036877e-03	1.565284e-06
5.113183593750288e-10	7.040771e-03	1.564498e-06
5.345117187500286e-10	7.109312e-03	1.540505e-06
5.350000000000000e-10	7.109823e-03	1.540000e-06
5.350610351562500e-10	7.109904e-03	1.539916e-06
5.354272460937500e-10	7.110238e-03	1.539411e-06
5.365258789062501e-10	7.111078e-03	1.537895e-06
5.372234235491072e-10	7.111545e-03	1.536933e-06
5.379209681919644e-10	7.111941e-03	1.535971e-06
5.386185128348215e-10	7.112266e-03	1.535009e-06
5.393160574776786e-10	7.112521e-03	1.534047e-06
5.400136021205357e-10	7.112706e-03	1.533085e-06
5.407111467633929e-10	7.112820e-03	1.532123e-06
5.414086914062500e-10	7.112864e-03	1.531160e-06
5.475122070312499e-10	7.110383e-03	1.522742e-06
5.633813476562498e-10	7.081267e-03	1.500853e-06
5.639916992187498e-10	7.079562e-03	1.500011e-06
5.640000000000000e-10	7.079565e-03	1.500000e-06
5.645853794642898e-10	7.077824e-03	1.498991e-06
5.651707589285797e-10	7.076050e-03	1.497981e-06
5.657561383928695e-10	7.074240e-03	1.496972e-06
5.663415178571593e-10	7.072397e-03	1.495963e-06
5.669268973214491e-10	7.070518e-03	1.494954e-06
5.675122767857391e-10	7.068605e-03	1.493944e-06
5.680976562500289e-10	7.066658e-03	1.492935e-06
5.715853794643145e-10	7.054106e-03	1.486922e-06
5.750731026786003e-10	7.040218e-03	1.480908e-06
5.785608258928859e-10	7.024992e-03	1.474895e-06
5.820485491071716e-10	7.008430e-03	1.468882e-06
5.855362723214573e-10	6.990530e-03	1.462869e-06
5.890239955357430e-10	6.971294e-03	1.456855e-06
5.925117187500286e-10	6.950720e-03	1.450842e-06
5.930000000000000e-10	6.947770e-03	1.450000e-06
5.930610351562501e-10	6.947417e-03	1.449916e-06
5.931831054687500e-10	6.946676e-03	1.449747e-06
5.945258789062501e-10	6.938301e-03	1.447895e-06
5.963569335937500e-10	6.926653e-03	1.445370e-06
5.976648297991072e-10	6.918121e-03	1.443566e-06
5.989727260044643e-10	6.909422e-03	1.441762e-06
6.002806222098215e-10	6.900556e-03	1.439958e-06
6.015885184151785e-10	6.891523e-03	1.438154e-06
6.028964146205357e-10	6.882323e-03	1.436350e-06
6.042043108258928e-10	6.872956e-03	1.434546e-06
6.055122070312500e-10	6.863422e-03	1.432742e-06
6.213813476562498e-10	6.735786e-03	1.410853e-06
6.219916992187498e-10	6.730500e-03	1.410011e-06
6.220000000000000e-10	6.730453e-03	1.410000e-06
6.225853794642898e-10	6.725304e-03	1.409193e-06
6.231707589285797e-10	6.720134e-03	1.408385e-06
6.237561383928695e-10	6.714944e-03	1.407578e-06
6.243415178571593e-10	6.709734e-03	1.406770e-06
6.249268973214492e-10	6.704503e-03	1.405963e-06
6.255122767857391e-10	6.699252e-03	1.405155e-06
6.260976562500289e-10	6.693982e-03	1.404348e-06
6.281902901786003e-10	6.674893e-03	1.401462e-06
6.302829241071717e-10	6.655541e-03	1.398575e-06
6.323755580357431e-10	6.635925e-03	1.395689e-06
6.344681919643145e-10	6.616045e-03	1.392803e-06
6.365608258928859e-10	6.595901e-03	1.389916e-06
6.386534598214573e-10	6.575494e-03	1.387030e-06
6.407460937500287e-10	6.554823e-03	1.384143e-06
6.505117187500286e-10	6.455872e-03	1.370674e-06
6.510000000000000e-10	6.450840e-03	1.370000e-06
6.510610351562501e-10	6.450227e-03	1.369895e-06
6.511831054687500e-10	6.448970e-03	1.369684e-06
6.525258789062501e-10	6.434999e-03	1.367369e-06
6.532234235491072e-10	6.427737e-03	1.366166e-06
6.539209681919644e-10	6.420461e-03	1.364964e-06
6.546185128348215e-10	6.413171e-03	1.363761e-06
6.553160574776786e-10	6.405866e-03	1.362559e-06
6.560136021205357e-10	6.398548e-03	1.361356e-06
6.567111467633929e-10	6.391216e-03	1.360153e-06
6.574086914062500e-10	6.383870e-03	1.358950e-06
6.793813476562498e-10	6.147874e-03	1.321067e-06
6.799916992187498e-10	6.141274e-03	1.320014e-06
6.800000000000000e-10	6.141207e-03	1.320000e-06
6.805853794642898e-10	6.134836e-03	1.318991e-06
6.811707589285797e-10	6.128469e-03	1.317981e-06
6.817561383928695e-10	6.122104e-03	1.316972e-06
6.823415178571594e-10	6.115742e-03	1.315963e-06
6.829268973214492e-10	6.109384e-03	1.314954e-06
6.835122767857391e-10	6.103028e-03	1.313944e-06
6.840976562500289e-10	6.096675e-03	1.312935e-06
6.875853794643145e-10	6.058732e-03	1.306922e-06
6.910731026786003e-10	6.020859e-03	1.300908e-06
6.945608258928859e-10	5.983057e-03	1.294895e-06
6.980485491071716e-10	5.945326e-03	1.288882e-06
7.015362723214573e-10	5.907665e-03	1.282868e-06
7.050239955357430e-10	5.870075e-03	1.276855e-06
7.085117187500286e-10	5.832557e-03	1.270842e-06
7.090000000000000e-10	5.827332e-03	1.270000e-06
7.090610351562501e-10	5.826695e-03	1.269895e-06
7.091831054687500e-10	5.825393e-03	1.269684e-06
7.105258789062501e-10	5.810978e-03	1.267369e-06
7.113106166294644e-10	5.802582e-03	1.266016e-06
7.120953543526786e-10	5.794193e-03	1.264663e-06
7.128800920758929e-10	5.785811e-03	1.263310e-06
7.136648297991072e-10	5.777435e-03	1.261957e-06
7.144495675223215e-10	5.769067e-03	1.260604e-06
7.152343052455357e-10	5.760706e-03	1.259251e-06
7.160190429687500e-10	5.752351e-03	1.257898e-06
7.373813476562498e-10	5.528205e-03	1.221067e-06
7.379916992187498e-10	5.521928e-03	1.220014e-06
7.380000000000000e-10	5.521864e-03	1.220000e-06
7.385853794642898e-10	5.515818e-03	1.218991e-06
7.391707589285797e-10	5.509782e-03	1.217981e-06
7.397561383928696e-10	5.503756e-03	1.216972e-06
7.403415178571594e-10	5.497740e-03	1.215963e-06
7.409268973214492e-10	5.491733e-03	1.214954e-06
7.415122767857391e-10	5.485737e-03	1.213944e-06
7.420976562500289e-10	5.479750e-03	1.212935e-06
7.455853794643145e-10	5.444156e-03	1.206922e-06
7.490731026786003e-10	5.408861e-03	1.200908e-06
7.525608258928859e-10	5.373864e-03	1.194895e-06
7.560485491071716e-10	5.339166e-03	1.188882e-06
7.595362723214573e-10	5.304766e-03	1.182869e-06
7.630239955357430e-10	5.270665e-03	1.176855e-06
7.665117187500286e-10	5.236862e-03	1.170842e-06
7.669999999999999e-10	5.232174e-03	1.170000e-06
7.670610351562500e-10	5.231605e-03	1.169895e-06
7.671831054687499e-10	5.230439e-03	1.169684e-06
7.685258789062500e-10	5.217528e-03	1.167369e-06
7.693978097098214e-10	5.209190e-03	1.165866e-06
7.702697405133928e-10	5.200876e-03	1.164363e-06
7.711416713169643e-10	5.192584e-03	1.162859e-06
7.720136021205356e-10	5.184316e-03	1.161356e-06
7.728855329241071e-10	5.176071e-03	1.159853e-06
7.737574637276785e-10	5.167850e-03	1.158349e-06
7.746293945312499e-10	5.159651e-03	1.156846e-06
7.953813476562497e-10	4.971917e-03	1.121067e-06
7.959916992187497e-10	4.966642e-03	1.120014e-06
7.959999999999999e-10	4.966589e-03	1.120000e-06
7.966725725446469e-10	4.960762e-03	1.118840e-06
7.973451450892939e-10	4.954955e-03	1.117681e-06
7.980177176339408e-10	4.949167e-03	1.116521e-06
7.986902901785879e-10	4.943398e-03	1.115362e-06
7.993628627232349e-10	4.937649e-03	1.114202e-06
8.000354352678818e-10	4.931919e-03	1.113042e-06
8.007080078125288e-10	4.926209e-03	1.111883e-06
8.041085379464573e-10	4.897581e-03	1.106020e-06
8.075090680803859e-10	4.869373e-03	1.100157e-06
8.109095982143144e-10	4.841586e-03	1.094294e-06
8.143101283482430e-10	4.814221e-03	1.088431e-06
8.177106584821715e-10	4.787276e-03	1.082568e-06
8.211111886161001e-10	4.760752e-03	1.076705e-06
8.245117187500285e-10	4.734649e-03	1.070842e-06
8.249999999999999e-10	4.730943e-03	1.070000e-06
8.250610351562500e-10	4.730491e-03	1.069895e-06
8.251831054687499e-10	4.729565e-03	1.069684e-06
8.265258789062500e-10	4.719385e-03	1.067369e-06
8.275721958705357e-10	4.711518e-03	1.065565e-06
8.286185128348214e-10	4.703690e-03	1.063761e-06
8.296648297991071e-10	4.695901e-03	1.061957e-06
8.307111467633928e-10	4.688151e-03	1.060153e-06
8.317574637276785e-10	4.680439e-03	1.058349e-06
8.328037806919642e-10	4.672766e-03	1.056545e-06
8.338500976562499e-10	4.665133e-03	1.054741e-06
8.533813476562497e-10	4.529176e-03	1.021067e-06
8.539916992187497e-10	4.525126e-03	1.020014e-06
8.539999999999999e-10	4.525088e-03	1.020000e-06
8.546725725446469e-10	4.520611e-03	1.018887e-06
8.553451450892939e-10	4.516148e-03	1.017774e-06
8.560177176339408e-10	4.511701e-03	1.016660e-06
8.566902901785879e-10	4.507269e-03	1.015547e-06
8.573628627232349e-10	4.502853e-03	1.014434e-06
8.580354352678818e-10	4.498451e-03	1.013321e-06
8.587080078125288e-10	4.494064e-03	1.012207e-06
8.825117187500286e-10	4.346062e-03	9.728082e-07
8.829999999999999e-10	4.343171e-03	9.720000e-07
8.830610351562500e-10	4.342818e-03	9.718948e-07
8.831831054687499e-10	4.342095e-03	9.716842e-07
8.845258789062500e-10	4.334133e-03	9.693691e-07
8.859209681919643e-10	4.325929e-03	9.669638e-07
8.873160574776785e-10	4.317764e-03	9.645585e-07
8.887111467633928e-10	4.309639e-03	9.621532e-07
8.901062360491071e-10	4.301553e-03	9.597478e-07
8.915013253348214e-10	4.293507e-03	9.573425e-07
8.928964146205356e-10	4.285500e-03	9.549372e-07
8.942915039062499e-10	4.277533e-03	9.525319e-07
9.113813476562497e-10	4.182763e-03	9.230666e-07
9.119916992187497e-10	4.179486e-03	9.220143e-07
9.120000000000000e-10	4.179457e-03	9.220000e-07
9.126725725446469e-10	4.175824e-03	9.208636e-07
9.133451450892939e-10	4.172201e-03	9.197272e-07
9.140177176339408e-10	4.168588e-03	9.185907e-07
9.146902901785879e-10	4.164984e-03	9.174543e-07
9.153628627232349e-10	4.161390e-03	9.163179e-07
9.160354352678818e-10	4.157807e-03	9.151815e-07
9.167080078125288e-10	4.154232e-03	9.140451e-07
9.405117187500301e-10	4.031998e-03	8.738250e-07
9.410000000000000e-10	4.029580e-03	8.730000e-07
9.410610351562499e-10	4.029285e-03	8.728969e-07
9.411831054687499e-10	4.028678e-03	8.726906e-07
9.425258789062500e-10	4.022007e-03	8.704218e-07
9.463623744419649e-10	4.003152e-03	8.639394e-07
9.501988699776798e-10	3.984453e-03	8.574571e-07
9.540353655133947e-10	3.965909e-03	8.509747e-07
9.578718610491096e-10	3.947520e-03	8.444924e-07
9.617083565848245e-10	3.929287e-03	8.380100e-07
9.655448521205394e-10	3.911209e-03	8.315277e-07
9.693813476562543e-10	3.893287e-03	8.250453e-07
9.699916992187544e-10	3.890458e-03	8.240140e-07
9.700000000000000e-10	3.890434e-03	8.240000e-07
9.706725725445633e-10	3.887294e-03	8.229100e-07
9.713451450891266e-10	3.884160e-03	8.218199e-07
9.720177176336899e-10	3.881032e-03	8.207299e-07
9.726902901782532e-10	3.877910e-03	8.196399e-07
9.733628627228165e-10	3.874794e-03	8.185498e-07
9.740354352673798e-10	3.871683e-03	8.174598e-07
9.747080078119432e-10	3.868579e-03	8.163698e-07
9.985117187494470e-10	3.760294e-03	7.777913e-07
9.990000000000000e-10	3.758106e-03	7.770000e-07
9.990610351562499e-10	3.757837e-03	7.769075e-07
9.991831054687500e-10	3.757285e-03	7.767224e-07
1.000525878906250e-09	3.751234e-03	7.746866e-07
1.001572195870536e-09	3.746539e-03	7.731002e-07
1.002618512834822e-09	3.741845e-03	7.715138e-07
1.003664829799108e-09	3.737153e-03	7.699275e-07
1.004711146763394e-09	3.732461e-03	7.683411e-07
1.005757463727679e-09	3.727771e-03	7.667548e-07
1.006803780691965e-09	3.723082e-03	7.651685e-07
1.007850097656251e-09	3.718395e-03	7.635821e-07
1.029212402343755e-09	3.622895e-03	7.311941e-07
1.029822753906255e-09	3.620176e-03	7.302687e-07
1.030061035156250e-09	3.619127e-03	7.299084e-07
1.030706263950893e-09	3.616232e-03	7.289406e-07
1.031351492745536e-09	3.613339e-03	7.279727e-07
1.031996721540179e-09	3.610448e-03	7.270049e-07
1.032641950334822e-09	3.607558e-03	7.260370e-07
1.033287179129465e-09	3.604670e-03	7.250692e-07
1.033932407924107e-09	3.601784e-03	7.241014e-07
1.034577636718750e-09	3.598899e-03	7.231336e-07
1.058991699218754e-09	3.488970e-03	6.865125e-07
1.059602050781254e-09	3.486205e-03	6.855969e-07
1.060000000000000e-09	3.484409e-03	6.850000e-07
1.060183105468750e-09	3.483564e-03	6.847314e-07
1.061525878906250e-09	3.477450e-03	6.827620e-07
1.062659388950893e-09	3.472297e-03	6.810996e-07
1.063792898995536e-09	3.467139e-03	6.794371e-07
1.064926409040179e-09	3.461975e-03	6.777746e-07
1.066059919084822e-09	3.456806e-03	6.761121e-07
1.067193429129465e-09	3.451632e-03	6.744497e-07
1.068326939174108e-09	3.446452e-03	6.727872e-07
1.069460449218751e-09	3.441267e-03	6.711247e-07
1.088991699218754e-09	3.351156e-03	6.424788e-07
1.089602050781254e-09	3.348319e-03	6.415837e-07
1.090000000000000e-09	3.346476e-03	6.410000e-07
1.090183105468750e-09	3.345630e-03	6.407375e-07
1.091525878906250e-09	3.339350e-03	6.388129e-07
1.092746582031250e-09	3.333651e-03	6.370632e-07
1.093967285156250e-09	3.327946e-03	6.353135e-07
1.095187988281251e-09	3.322235e-03	6.335639e-07
1.096408691406251e-09	3.316517e-03	6.318142e-07
1.097629394531251e-09	3.310792e-03	6.300645e-07
1.098850097656251e-09	3.305061e-03	6.283148e-07
1.100070800781251e-09	3.299323e-03	6.265652e-07
1.118991699218754e-09	3.209494e-03	5.994452e-07
1.119602050781254e-09	3.206572e-03	5.985704e-07
1.120000000000000e-09	3.204673e-03	5.980000e-07
1.120183105468750e-09	3.203777e-03	5.976246e-07
1.121525878906250e-09	3.197322e-03	5.948719e-07
1.122136230468750e-09	3.194394e-03	5.936207e-07
1.122746582031250e-09	3.191463e-03	5.923695e-07
1.123356933593750e-09	3.188530e-03	5.911183e-07
1.123967285156250e-09	3.185594e-03	5.898671e-07
1.124577636718750e-09	3.182655e-03	5.886158e-07
1.125187988281250e-09	3.179713e-03	5.873646e-07
1.125798339843751e-09	3.176769e-03	5.861134e-07
1.126408691406251e-09	3.173825e-03	5.848622e-07
1.139226074218753e-09	3.111616e-03	5.585865e-07
1.139836425781253e-09	3.108645e-03	5.573353e-07
1.140061035156250e-09	3.107561e-03	5.569207e-07
1.140706263950893e-09	3.104400e-03	5.560819e-07
1.141351492745536e-09	3.101240e-03	5.552431e-07
1.141996721540179e-09	3.098079e-03	5.544043e-07
1.142641950334822e-09	3.094919e-03	5.535655e-07
1.143287179129465e-09	3.091759e-03	5.527267e-07
1.143932407924108e-09	3.088599e-03	5.518879e-07
1.144577636718751e-09	3.085439e-03	5.510491e-07
1.168991699218754e-09	2.964679e-03	5.193108e-07
1.169602050781255e-09	2.961638e-03	5.185173e-07
1.170000000000000e-09	2.959661e-03	5.180000e-07
1.170061035156250e-09	2.959354e-03	5.179227e-07
1.170427246093750e-09	2.957516e-03	5.174588e-07
1.171525878906250e-09	2.952024e-03	5.160672e-07
1.175449567522322e-09	2.932397e-03	5.110972e-07
1.179373256138394e-09	2.912729e-03	5.061272e-07
1.183296944754466e-09	2.893021e-03	5.011572e-07
1.187220633370538e-09	2.873271e-03	4.961872e-07
1.191144321986610e-09	2.853481e-03	4.912172e-07
1.195068010602682e-09	2.833650e-03	4.862472e-07
1.198991699218754e-09	2.813778e-03	4.812772e-07
1.199602050781254e-09	2.810689e-03	4.805041e-07
1.200000000000000e-09	2.808680e-03	4.800000e-07
1.200061035156250e-09	2.808376e-03	4.799268e-07
1.200427246093750e-09	2.806518e-03	4.794873e-07
1.201525878906250e-09	2.800932e-03	4.781689e-07
1.205449567522322e-09	2.781012e-03	4.734605e-07
1.209373256138394e-09	2.761068e-03	4.687521e-07
1.213296944754466e-09	2.741100e-03	4.640437e-07
1.217220633370538e-09	2.721109e-03	4.593353e-07
1.221144321986610e-09	2.701094e-03	4.546268e-07
1.225068010602682e-09	2.681056e-03	4.499184e-07
1.228991699218754e-09	2.660994e-03	4.452100e-07
1.229602050781255e-09	2.657876e-03	4.444775e-07
1.230000000000000e-09	2.655848e-03	4.440000e-07
1.230061035156250e-09	2.655532e-03	4.439308e-07
1.230427246093750e-09	2.653647e-03	4.435158e-07
1.231525878906250e-09	2.648023e-03	4.422707e-07
1.258991699218754e-09	2.507003e-03	4.111427e-07
1.259602050781254e-09	2.503862e-03	4.104510e-07
1.260000000000000e-09	2.501818e-03	4.100000e-07
1.260061035156250e-09	2.501508e-03	4.099349e-07
1.260427246093750e-09	2.499619e-03	4.095443e-07
1.261525878906250e-09	2.493944e-03	4.083724e-07
1.288991699218754e-09	2.352113e-03	3.790755e-07
1.289602050781255e-09	2.348964e-03	3.784245e-07
1.290000000000000e-09	2.346915e-03	3.780000e-07
1.290061035156250e-09	2.346605e-03	3.779390e-07
1.290427246093750e-09	2.344713e-03	3.775727e-07
1.291525878906250e-09	2.339028e-03	3.764741e-07
1.318991699218754e-09	2.197834e-03	3.490083e-07
1.319602050781254e-09	2.194721e-03	3.483979e-07
1.320000000000000e-09	2.192697e-03	3.480000e-07
1.320061035156250e-09	2.192388e-03	3.479410e-07
1.320427246093750e-09	2.190518e-03	3.475870e-07
1.321525878906250e-09	2.184907e-03	3.465250e-07
1.348991699218754e-09	2.046778e-03	3.199747e-07
1.349602050781255e-09	2.043759e-03	3.193847e-07
1.350000000000000e-09	2.041797e-03	3.190000e-07
1.350061035156250e-09	2.041499e-03	3.189471e-07
1.350427246093750e-09	2.039688e-03	3.186297e-07
1.351525878906250e-09	2.034250e-03	3.176776e-07
1.378991699218754e-09	1.901229e-03	2.938739e-07
1.379602050781254e-09	1.898338e-03	2.933449e-07
1.380000000000000e-09	1.896458e-03	2.930000e-07
1.380061035156250e-09	1.896170e-03	2.929491e-07
1.380427246093750e-09	1.894433e-03	2.926440e-07
1.381525878906250e-09	1.889233e-03	2.917284e-07
1.408991699218754e-09	1.762628e-03	2.688402e-07
1.409602050781255e-09	1.759887e-03	2.683316e-07
1.410000000000000e-09	1.758105e-03	2.680000e-07
1.410061035156250e-09	1.757834e-03	2.679268e-07
1.410427246093750e-09	1.756191e-03	2.674873e-07
1.411525878906250e-09	1.751261e-03	2.661689e-07
1.429226074218753e-09	1.673392e-03	2.449287e-07
1.429836425781253e-09	1.670759e-03	2.441963e-07
1.430061035156250e-09	1.669795e-03	2.439573e-07
1.430619070870536e-09	1.667384e-03	2.435667e-07
1.431177106584821e-09	1.664976e-03	2.431760e-07
1.431735142299107e-09	1.662572e-03	2.427854e-07
1.432293178013393e-09	1.660171e-03	2.423948e-07
1.432851213727679e-09	1.657774e-03	2.420041e-07
1.433409249441964e-09	1.655381e-03	2.416135e-07
1.433967285156250e-09	1.652990e-03	2.412229e-07
1.458991699218754e-09	1.548628e-03	2.237058e-07
1.459602050781254e-09	1.546155e-03	2.232786e-07
1.460000000000000e-09	1.544548e-03	2.230000e-07
1.460061035156250e-09	1.544304e-03	2.229593e-07
1.460427246093750e-09	1.542822e-03	2.227152e-07
1.461525878906250e-09	1.538376e-03	2.219827e-07
1.488991699218754e-09	1.431023e-03	2.036722e-07
1.489602050781254e-09	1.428721e-03	2.032653e-07
1.490000000000000e-09	1.427224e-03	2.030000e-07
1.490061035156250e-09	1.426994e-03	2.029613e-07
1.490427246093750e-09	1.425612e-03	2.027294e-07
1.491525878906250e-09	1.421477e-03	2.020336e-07
1.518991699218754e-09	1.322010e-03	1.846386e-07
1.519602050781254e-09	1.319884e-03	1.842520e-07
1.520000000000000e-09	1.318503e-03	1.840000e-07
1.520061035156250e-09	1.318294e-03	1.839654e-07
1.520427246093750e-09	1.317020e-03	1.837579e-07
1.521525878906250e-09	1.313199e-03	1.831353e-07
1.525449567522322e-09	1.299668e-03	1.809119e-07
1.529373256138394e-09	1.286278e-03	1.786885e-07
1.533296944754466e-09	1.273026e-03	1.764651e-07
1.537220633370538e-09	1.259915e-03	1.742416e-07
1.541144321986610e-09	1.246943e-03	1.720182e-07
1.545068010602682e-09	1.234111e-03	1.697948e-07
1.548991699218754e-09	1.221419e-03	1.675714e-07
1.549602050781254e-09	1.219458e-03	1.672255e-07
1.550000000000000e-09	1.218183e-03	1.670000e-07
1.550183105468750e-09	1.217594e-03	1.669084e-07
1.551525878906250e-09	1.213288e-03	1.662371e-07
1.555536760602679e-09	1.200544e-03	1.642316e-07
1.559547642299108e-09	1.187931e-03	1.622262e-07
1.563558523995537e-09	1.175448e-03	1.602207e-07
1.567569405691967e-09	1.163094e-03	1.582153e-07
1.571580287388396e-09	1.150870e-03	1.562099e-07
1.575591169084825e-09	1.138777e-03	1.542044e-07
1.579602050781254e-09	1.126813e-03	1.521990e-07
1.580000000000000e-09	1.125634e-03	1.520000e-07
1.580183105468750e-09	1.125094e-03	1.519085e-07
1.581525878906250e-09	1.121112e-03	1.512371e-07
1.585536760602679e-09	1.109322e-03	1.492316e-07
1.589547642299108e-09	1.097655e-03	1.472262e-07
1.593558523995538e-09	1.086110e-03	1.452207e-07
1.597569405691967e-09	1.074687e-03	1.432153e-07
1.601580287388396e-09	1.063387e-03	1.412099e-07
1.605591169084825e-09	1.052210e-03	1.392044e-07
1.609602050781254e-09	1.041155e-03	1.371990e-07
1.610000000000000e-09	1.040068e-03	1.370000e-07
1.610183105468750e-09	1.039564e-03	1.369206e-07
1.611525878906250e-09	1.035892e-03	1.363388e-07
1.615536760602679e-09	1.025022e-03	1.346007e-07
1.619547642299108e-09	1.014271e-03	1.328627e-07
1.623558523995537e-09	1.003638e-03	1.311246e-07
1.627569405691967e-09	9.931222e-04	1.293866e-07
1.631580287388396e-09	9.827244e-04	1.276485e-07
1.635591169084825e-09	9.724445e-04	1.259105e-07
1.639602050781254e-09	9.622824e-04	1.241724e-07
1.640000000000000e-09	9.612825e-04	1.240000e-07
1.640183105468750e-09	9.608239e-04	1.239268e-07
1.641525878906250e-09	9.574478e-04	1.233897e-07
1.669602050781254e-09	8.900344e-04	1.121592e-07
1.670000000000000e-09	8.891229e-04	1.120000e-07
1.670183105468750e-09	8.886993e-04	1.119329e-07
1.671525878906250e-09	8.856233e-04	1.114405e-07
1.675536760602679e-09	8.765279e-04	1.099699e-07
1.679547642299108e-09	8.675444e-04	1.084992e-07
1.683558523995537e-09	8.586727e-04	1.070285e-07
1.687569405691967e-09	8.499129e-04	1.055579e-07
1.691580287388396e-09	8.412648e-04	1.040872e-07
1.695591169084825e-09	8.327286e-04	1.026166e-07
1.699602050781254e-09	8.243043e-04	1.011459e-07
1.700183105468750e-09	8.230963e-04	1.009112e-07
1.701525878906250e-09	8.203012e-04	1.002599e-07
1.716174316406252e-09	7.906637e-04	9.315546e-08
1.716697474888395e-09	7.896318e-04	9.290172e-08
1.717220633370538e-09	7.886019e-04	9.264799e-08
1.717743791852681e-09	7.875739e-04	9.239426e-08
1.718266950334824e-09	7.865479e-04	9.214053e-08
1.718790108816967e-09	7.855238e-04	9.188679e-08
1.719313267299110e-09	7.845017e-04	9.163306e-08
1.719836425781253e-09	7.834816e-04	9.137933e-08
1.720061035156250e-09	7.830451e-04	9.128169e-08
1.720793457031250e-09	7.816182e-04	9.106197e-08
1.721525878906250e-09	7.801953e-04	9.084224e-08
1.722258300781250e-09	7.787762e-04	9.062251e-08
1.722990722656250e-09	7.773610e-04	9.040279e-08
1.723723144531250e-09	7.759496e-04	9.018306e-08
1.724455566406250e-09	7.745421e-04	8.996333e-08
1.725187988281250e-09	7.731385e-04	8.974360e-08
1.728675711495537e-09	7.665040e-04	8.869728e-08
1.732163434709823e-09	7.599413e-04	8.765097e-08
1.735651157924109e-09	7.534504e-04	8.660465e-08
1.739138881138396e-09	7.470313e-04	8.555833e-08
1.742626604352682e-09	7.406839e-04	8.451202e-08
1.746114327566968e-09	7.344084e-04	8.346570e-08
1.749602050781254e-09	7.282047e-04	8.241938e-08
1.750183105468750e-09	7.271807e-04	8.224995e-08
1.750898088727679e-09	7.259159e-04	8.205452e-08
1.751613071986607e-09	7.246541e-04	8.185909e-08
1.752328055245536e-09	7.233956e-04	8.166367e-08
1.753043038504465e-09	7.221403e-04	8.146824e-08
1.753758021763393e-09	7.208881e-04	8.127281e-08
1.754473005022322e-09	7.196392e-04	8.107738e-08
1.755187988281251e-09	7.183934e-04	8.088195e-08
1.779602050781254e-09	6.775127e-04	7.420877e-08
1.780183105468750e-09	6.765781e-04	7.405483e-08
1.780898088727678e-09	6.754300e-04	7.387847e-08
1.781613071986607e-09	6.742848e-04	7.370211e-08
1.782328055245536e-09	6.731424e-04	7.352575e-08
1.783043038504464e-09	6.720029e-04	7.334939e-08
1.783758021763393e-09	6.708663e-04	7.317303e-08
1.784473005022322e-09	6.697325e-04	7.299666e-08
1.785187988281250e-09	6.686017e-04	7.282030e-08
1.809602050781254e-09	6.314936e-04	6.679816e-08
1.810183105468750e-09	6.306476e-04	6.665910e-08
1.810898088727679e-09	6.296036e-04	6.649943e-08
1.811613071986607e-09	6.285623e-04	6.633975e-08
1.812328055245536e-09	6.275237e-04	6.618007e-08
1.813043038504465e-09	6.264879e-04	6.602039e-08
1.813758021763393e-09	6.254548e-04	6.586071e-08
1.814473005022322e-09	6.244245e-04	6.570103e-08
1.815187988281251e-09	6.233968e-04	6.554135e-08
1.839602050781254e-09	5.896895e-04	6.008887e-08
1.840183105468750e-09	5.889182e-04	5.996277e-08
1.840985281808036e-09	5.878564e-04	5.979966e-08
1.841787458147322e-09	5.867974e-04	5.963655e-08
1.842589634486607e-09	5.857412e-04	5.947344e-08
1.843391810825893e-09	5.846879e-04	5.931033e-08
1.844193987165179e-09	5.836375e-04	5.914722e-08
1.844996163504465e-09	5.825899e-04	5.898411e-08
1.845798339843751e-09	5.815451e-04	5.882100e-08
1.849198869977680e-09	5.771427e-04	5.812956e-08
1.852599400111609e-09	5.727817e-04	5.743812e-08
1.855999930245538e-09	5.684620e-04	5.674668e-08
1.859400460379467e-09	5.641837e-04	5.605524e-08
1.862800990513396e-09	5.599468e-04	5.536380e-08
1.866201520647325e-09	5.557513e-04	5.467236e-08
1.869602050781254e-09	5.515971e-04	5.398092e-08
1.870183105468750e-09	5.508931e-04	5.386643e-08
1.870985281808036e-09	5.499183e-04	5.371936e-08
1.871787458147321e-09	5.489461e-04	5.357230e-08
1.872589634486607e-09	5.479763e-04	5.342523e-08
1.873391810825893e-09	5.470090e-04	5.327817e-08
1.874193987165179e-09	5.460442e-04	5.313110e-08
1.874996163504465e-09	5.450818e-04	5.298404e-08
1.875798339843751e-09	5.441220e-04	5.283697e-08
1.899602050781254e-09	5.165995e-04	4.847296e-08
1.900183105468750e-09	5.159493e-04	4.836948e-08
1.900985281808036e-09	5.150555e-04	4.823579e-08
1.901787458147322e-09	5.141637e-04	4.810209e-08
1.902589634486607e-09	5.132738e-04	4.796840e-08
1.903391810825893e-09	5.123859e-04	4.783470e-08
1.904193987165179e-09	5.115000e-04	4.770100e-08
1.904996163504465e-09	5.106161e-04	4.756731e-08
1.905798339843751e-09	5.097341e-04	4.743361e-08
1.909198869977680e-09	5.060154e-04	4.686686e-08
1.912599400111609e-09	5.023300e-04	4.630010e-08
1.915999930245538e-09	4.986776e-04	4.573335e-08
1.919400460379467e-09	4.950585e-04	4.516659e-08
1.922800990513396e-09	4.914725e-04	4.459984e-08
1.926201520647325e-09	4.879197e-04	4.403308e-08
1.929602050781255e-09	4.844000e-04	4.346633e-08
1.930183105468750e-09	4.838040e-04	4.337253e-08
1.930985281808035e-09	4.829787e-04	4.325221e-08
1.931787458147321e-09	4.821556e-04	4.313188e-08
1.932589634486607e-09	4.813346e-04	4.301155e-08
1.933391810825893e-09	4.805157e-04	4.289123e-08
1.934193987165179e-09	4.796990e-04	4.277090e-08
1.934996163504465e-09	4.788844e-04	4.265058e-08
1.935798339843750e-09	4.780720e-04	4.253025e-08
1.959602050781254e-09	4.548065e-04	3.895969e-08
1.960183105468750e-09	4.542563e-04	3.887559e-08
1.961072474888393e-09	4.534178e-04	3.875700e-08
1.961961844308036e-09	4.525818e-04	3.863842e-08
1.962851213727679e-09	4.517484e-04	3.851984e-08
1.963740583147322e-09	4.509175e-04	3.840125e-08
1.964629952566965e-09	4.500892e-04	3.828267e-08
1.965519321986608e-09	4.492635e-04	3.816409e-08
1.966408691406251e-09	4.484403e-04	3.804551e-08
1.989602050781254e-09	4.276792e-04	3.495306e-08
1.990183105468750e-09	4.271781e-04	3.486613e-08
1.991072474888393e-09	4.264089e-04	3.470159e-08
1.991961844308036e-09	4.256419e-04	3.453706e-08
1.992851213727679e-09	4.248770e-04	3.437253e-08
1.993740583147322e-09	4.241142e-04	3.420799e-08
1.994629952566965e-09	4.233536e-04	3.404346e-08
1.995519321986608e-09	4.225950e-04	3.387893e-08
1.996408691406251e-09	4.218387e-04	3.371439e-08
1.998326939174108e-09	4.202130e-04	3.335952e-08
2.000245186941966e-09	4.185958e-04	3.300464e-08
2.002163434709823e-09	4.169870e-04	3.264976e-08
2.004081682477681e-09	4.153868e-04	3.229489e-08
2.005999930245538e-09	4.137950e-04	3.194001e-08
2.007918178013395e-09	4.122117e-04	3.158514e-08
2.009836425781253e-09	4.106369e-04	3.123026e-08
2.010183105468750e-09	4.103516e-04	3.117986e-08
2.011072474888393e-09	4.096246e-04	3.108203e-08
2.011961844308036e-09	4.088992e-04	3.098420e-08
2.012851213727679e-09	4.081757e-04	3.088637e-08
2.013740583147322e-09	4.074538e-04	3.078854e-08
2.014629952566965e-09	4.067337e-04	3.069071e-08
2.015519321986608e-09	4.060154e-04	3.059288e-08
2.016408691406251e-09	4.052988e-04	3.049504e-08
2.039602050781254e-09	3.871349e-04	2.794378e-08
2.040183105468750e-09	3.866942e-04	2.788169e-08
2.041159667968750e-09	3.859509e-04	2.778403e-08
2.042136230468750e-09	3.852095e-04	2.768638e-08
2.043112792968750e-09	3.844702e-04	2.758872e-08
2.044089355468751e-09	3.837328e-04	2.749106e-08
2.045065917968751e-09	3.829973e-04	2.739341e-08
2.046042480468751e-09	3.822639e-04	2.729575e-08
2.047019042968751e-09	3.815324e-04	2.719810e-08
2.069602050781255e-09	3.650777e-04	2.493979e-08
2.070183105468750e-09	3.646645e-04	2.488291e-08
2.071159667968750e-09	3.639735e-04	2.479176e-08
2.072136230468750e-09	3.632840e-04	2.470062e-08
2.073112792968750e-09	3.625960e-04	2.460947e-08
2.074089355468750e-09	3.619094e-04	2.451833e-08
2.075065917968750e-09	3.612244e-04	2.442718e-08
2.076042480468751e-09	3.605409e-04	2.433603e-08
2.077019042968751e-09	3.598589e-04	2.424489e-08
2.099602050781254e-09	3.444434e-04	2.213714e-08
2.099876883370539e-09	3.442602e-04	2.211248e-08
2.100151715959824e-09	3.440770e-04	2.208845e-08
2.100426548549110e-09	3.438935e-04	2.206507e-08
2.100701381138394e-09	3.437099e-04	2.204233e-08
2.100976213727680e-09	3.435262e-04	2.202022e-08
2.101251046316965e-09	3.433423e-04	2.199875e-08
2.101525878906250e-09	3.431583e-04	2.197793e-08
2.129602050781254e-09	3.248568e-04	1.973184e-08
2.129876883370540e-09	3.246808e-04	1.971010e-08
2.130151715959824e-09	3.245049e-04	1.968852e-08
2.130426548549110e-09	3.243292e-04	1.966710e-08
2.130701381138395e-09	3.241537e-04	1.964584e-08
2.130976213727680e-09	3.239783e-04	1.962474e-08
2.131251046316965e-09	3.238030e-04	1.960380e-08
2.131525878906250e-09	3.236279e-04	1.958302e-08
2.159602050781254e-09	3.061482e-04	1.743051e-08
2.159876883370540e-09	3.059819e-04	1.740993e-08
2.160151715959825e-09	3.058154e-04	1.738968e-08
2.160426548549110e-09	3.056488e-04	1.736974e-08
2.160701381138395e-09	3.054822e-04	1.735012e-08
2.160976213727680e-09	3.053154e-04	1.733082e-08
2.161251046316965e-09	3.051485e-04	1.731185e-08
2.161525878906250e-09	3.049815e-04	1.729319e-08
2.189602050781255e-09	2.884897e-04	1.532786e-08
2.189876883370539e-09	2.883341e-04	1.530911e-08
2.190151715959825e-09	2.881782e-04	1.529069e-08
2.190426548549109e-09	2.880222e-04	1.527258e-08
2.190701381138395e-09	2.878659e-04	1.525480e-08
2.190976213727680e-09	2.877094e-04	1.523733e-08
2.191251046316965e-09	2.875527e-04	1.522019e-08
2.191525878906250e-09	2.873958e-04	1.520336e-08
2.219602050781254e-09	2.718840e-04	1.342520e-08
2.219876883370539e-09	2.717367e-04	1.340829e-08
2.220151715959824e-09	2.715893e-04	1.339170e-08
2.220426548549110e-09	2.714418e-04	1.337543e-08
2.220701381138394e-09	2.712942e-04	1.335947e-08
2.220976213727680e-09	2.711465e-04	1.334384e-08
2.221251046316965e-09	2.709988e-04	1.332853e-08
2.221525878906250e-09	2.708509e-04	1.331353e-08
2.249602050781254e-09	2.562346e-04	1.172255e-08
2.249964076450897e-09	2.560523e-04	1.170254e-08
2.250326102120539e-09	2.558701e-04	1.168270e-08
2.250688127790181e-09	2.556878e-04	1.166303e-08
2.251050153459823e-09	2.555054e-04	1.164353e-08
2.251412179129466e-09	2.553231e-04	1.162420e-08
2.251774204799108e-09	2.551407e-04	1.160505e-08
2.252136230468750e-09	2.549582e-04	1.158607e-08
2.279602050781254e-09	2.416232e-04	1.012122e-08
2.279964076450897e-09	2.414541e-04	1.009881e-08
2.280326102120539e-09	2.412852e-04	1.007532e-08
2.280688127790181e-09	2.411163e-04	1.005077e-08
2.281050153459823e-09	2.409475e-04	1.002516e-08
2.281412179129466e-09	2.407787e-04	9.998476e-09
2.281774204799108e-09	2.406100e-04	9.970731e-09
2.282136230468750e-09	2.404414e-04	9.941919e-09
2.299836425781253e-09	2.324414e-04	8.632105e-09
2.300164969308038e-09	2.322963e-04	8.614460e-09
2.300493512834824e-09	2.321516e-04	8.597475e-09
2.300822056361609e-09	2.320074e-04	8.581150e-09
2.301150599888394e-09	2.318635e-04	8.565484e-09
2.301479143415179e-09	2.317200e-04	8.550478e-09
2.301807686941965e-09	2.315769e-04	8.536132e-09
2.302136230468750e-09	2.314341e-04	8.522446e-09
2.303967285156250e-09	2.306378e-04	8.438827e-09
2.307686244419643e-09	2.290340e-04	8.268995e-09
2.311405203683036e-09	2.274500e-04	8.099163e-09
2.315124162946429e-09	2.258860e-04	7.929330e-09
2.318843122209822e-09	2.243418e-04	7.759498e-09
2.322562081473215e-09	2.228176e-04	7.589665e-09
2.326281040736607e-09	2.213132e-04	7.419833e-09
2.330000000000000e-09	2.198287e-04	7.250000e-09
2.360000000000000e-09	2.086637e-04	5.970000e-09
2.364285714285714e-09	2.071881e-04	5.801429e-09
2.368571428571428e-09	2.057399e-04	5.632857e-09
2.372857142857143e-09	2.043190e-04	5.464286e-09
2.377142857142857e-09	2.029255e-04	5.295714e-09
2.381428571428571e-09	2.015594e-04	5.127143e-09
2.385714285714285e-09	2.002207e-04	4.958571e-09
2.390000000000000e-09	1.989093e-04	4.790000e-09
2.420000000000000e-09	1.904817e-04	3.670000e-09
2.424285714285714e-09	1.893913e-04	3.520000e-09
2.428571428571428e-09	1.883359e-04	3.370000e-09
2.432857142857143e-09	1.873155e-04	3.220000e-09
2.437142857142857e-09	1.863302e-04	3.070000e-09
2.441428571428571e-09	1.853798e-04	2.920000e-09
2.445714285714286e-09	1.844644e-04	2.770000e-09
2.450000000000000e-09	1.835840e-04	2.620000e-09
2.480000000000000e-09	1.785074e-04	1.640000e-09
2.484285714285714e-09	1.779304e-04	1.505714e-09
2.488571428571428e-09	1.773840e-04	1.371429e-09
2.492857142857143e-09	1.768681e-04	1.237143e-09
2.497142857142857e-09	1.763827e-04	1.102857e-09
2.501428571428571e-09	1.759279e-04	9.685714e-10
2.505714285714285e-09	1.755037e-04	8.342857e-10
2.510000000000000e-09	1.751100e-04	7.000000e-10
2.540000000000000e-09	1.730819e-04	-1.890000e-10
2.570000000000000e-09	1.723036e-04	-1.040000e-09
2.589836425781253e-09	1.724889e-04	-1.843375e-09
2.594145507812503e-09	1.726026e-04	-1.956481e-09
2.598454589843752e-09	1.727451e-04	-2.069343e-09
2.602763671875002e-09	1.729163e-04	-2.181962e-09
2.607072753906251e-09	1.731161e-04	-2.294337e-09
2.611381835937501e-09	1.733446e-04	-2.406468e-09
2.615690917968750e-09	1.736019e-04	-2.518356e-09
2.620000000000000e-09	1.738878e-04	-2.630000e-09
2.650000000000000e-09	1.766638e-04	-3.370000e-09
2.654285714285714e-09	1.771597e-04	-3.474286e-09
2.658571428571428e-09	1.776698e-04	-3.578571e-09
2.662857142857143e-09	1.781940e-04	-3.682857e-09
2.667142857142857e-09	1.787324e-04	-3.787143e-09
2.671428571428571e-09	1.792849e-04	-3.891428e-09
2.675714285714285e-09	1.798516e-04	-3.995714e-09
2.680000000000000e-09	1.804324e-04	-4.100000e-09
2.684285714285714e-09	1.810208e-04	-4.198571e-09
2.688571428571428e-09	1.816157e-04	-4.297143e-09
2.692857142857143e-09	1.822168e-04	-4.395714e-09
2.697142857142857e-09	1.828244e-04	-4.494286e-09
2.701428571428571e-09	1.834382e-04	-4.592857e-09
2.705714285714285e-09	1.840585e-04	-4.691429e-09
2.710000000000000e-09	1.846851e-04	-4.790000e-09
2.714285714285714e-09	1.853165e-04	-4.887143e-09
2.718571428571428e-09	1.859545e-04	-4.984286e-09
2.722857142857143e-09	1.865991e-04	-5.081429e-09
2.727142857142857e-09	1.872503e-04	-5.178571e-09
2.731428571428571e-09	1.879081e-04	-5.275714e-09
2.735714285714286e-09	1.885724e-04	-5.372857e-09
2.740000000000000e-09	1.892434e-04	-5.470000e-09
2.744285714285714e-09	1.899223e-04	-5.564286e-09
2.748571428571428e-09	1.905999e-04	-5.658571e-09
2.752857142857143e-09	1.912761e-04	-5.752857e-09
2.757142857142857e-09	1.919509e-04	-5.847143e-09
2.761428571428571e-09	1.926244e-04	-5.941429e-09
2.765714285714285e-09	1.932965e-04	-6.035714e-09
2.770000000000000e-09	1.939672e-04	-6.130000e-09
2.774285714285714e-09	1.946267e-04	-6.220000e-09
2.778571428571428e-09	1.952716e-04	-6.310000e-09
2.782857142857143e-09	1.959017e-04	-6.400000e-09
2.787142857142857e-09	1.965171e-04	-6.490000e-09
2.791428571428571e-09	1.971178e-04	-6.580000e-09
2.795714285714285e-09	1.977038e-04	-6.670000e-09
2.800000000000000e-09	1.982751e-04	-6.760000e-09
2.830000000000000e-09	2.016043e-04	-7.390000e-09
2.834285714285714e-09	2.019801e-04	-7.475714e-09
2.838571428571428e-09	2.023283e-04	-7.561428e-09
2.842857142857143e-09	2.026489e-04	-7.647143e-09
2.847142857142857e-09	2.029419e-04	-7.732857e-09
2.851428571428571e-09	2.032073e-04	-7.818571e-09
2.855714285714286e-09	2.034451e-04	-7.904285e-09
2.860000000000000e-09	2.036552e-04	-7.990000e-09
2.879836425781253e-09	2.042316e-04	-8.575174e-09
2.893732910156252e-09	2.042613e-04	-8.845503e-09
2.910000000000000e-09	2.039052e-04	-9.160000e-09
2.940000000000000e-09	2.020093e-04	-9.730000e-09
2.944285714285714e-09	2.015890e-04	-9.811429e-09
2.948571428571428e-09	2.011234e-04	-9.892857e-09
2.952857142857143e-09	2.006126e-04	-9.974286e-09
2.957142857142857e-09	2.000565e-04	-1.005571e-08
2.961428571428571e-09	1.994551e-04	-1.013714e-08
2.965714285714285e-09	1.988085e-04	-1.021857e-08
2.970000000000000e-09	1.981166e-04	-1.030000e-08
3.000000000000000e-09	1.920195e-04	-1.130000e-08
3.011378696986609e-09	1.891360e-04	-1.147068e-08
3.022757393973218e-09	1.861472e-04	-1.164136e-08
3.034136090959827e-09	1.830529e-04	-1.181204e-08
3.045514787946436e-09	1.798532e-04	-1.198272e-08
3.056893484933045e-09	1.765482e-04	-1.215340e-08
3.068272181919654e-09	1.731377e-04	-1.232408e-08
3.079650878906263e-09	1.696219e-04	-1.249476e-08
3.080093122209832e-09	1.694881e-04	-1.250266e-08
3.080535365513402e-09	1.693543e-04	-1.251079e-08
3.080977608816971e-09	1.692204e-04	-1.251916e-08
3.081419852120541e-09	1.690865e-04	-1.252775e-08
3.081862095424111e-09	1.689526e-04	-1.253658e-08
3.082304338727680e-09	1.688185e-04	-1.254564e-08
3.082746582031250e-09	1.686845e-04	-1.255493e-08
3.090925641741071e-09	1.662079e-04	-1.271851e-08
3.099104701450893e-09	1.637425e-04	-1.288209e-08
3.107283761160714e-09	1.612883e-04	-1.304568e-08
3.115462820870536e-09	1.588453e-04	-1.320926e-08
3.123641880580357e-09	1.564134e-04	-1.337284e-08
3.131820940290178e-09	1.539927e-04	-1.353642e-08
3.140000000000000e-09	1.515832e-04	-1.370000e-08
3.140427246093750e-09	1.514579e-04	-1.370641e-08
3.143635951450893e-09	1.505155e-04	-1.375454e-08
3.146844656808037e-09	1.495792e-04	-1.380267e-08
3.150053362165180e-09	1.486488e-04	-1.385080e-08
3.153262067522323e-09	1.477243e-04	-1.389893e-08
3.156470772879467e-09	1.468059e-04	-1.394706e-08
3.159679478236610e-09	1.458934e-04	-1.399519e-08
3.162888183593753e-09	1.449868e-04	-1.404332e-08
3.171047014508932e-09	1.426907e-04	-1.416571e-08
3.179205845424109e-09	1.405111e-04	-1.428809e-08
3.187364676339288e-09	1.384480e-04	-1.441047e-08
3.195523507254465e-09	1.365014e-04	-1.453285e-08
3.203682338169644e-09	1.346713e-04	-1.465524e-08
3.211841169084821e-09	1.329577e-04	-1.477762e-08
3.220000000000000e-09	1.313606e-04	-1.490000e-08
3.227106236049108e-09	1.301200e-04	-1.504212e-08
3.234212472098216e-09	1.289709e-04	-1.518425e-08
3.241318708147324e-09	1.279135e-04	-1.532637e-08
3.248424944196433e-09	1.269476e-04	-1.546850e-08
3.255531180245541e-09	1.260733e-04	-1.561062e-08
3.262637416294649e-09	1.252906e-04	-1.575275e-08
3.269743652343757e-09	1.245995e-04	-1.589487e-08
3.270259835379471e-09	1.245516e-04	-1.590225e-08
3.270776018415184e-09	1.245041e-04	-1.590937e-08
3.271292201450897e-09	1.244572e-04	-1.591622e-08
3.271808384486610e-09	1.244108e-04	-1.592282e-08
3.272324567522324e-09	1.243649e-04	-1.592915e-08
3.272840750558037e-09	1.243195e-04	-1.593522e-08
3.273356933593750e-09	1.242746e-04	-1.594103e-08
3.285734514508928e-09	1.233629e-04	-1.609231e-08
3.298112095424107e-09	1.226769e-04	-1.624359e-08
3.310489676339286e-09	1.222167e-04	-1.639487e-08
3.322867257254464e-09	1.219823e-04	-1.654615e-08
3.335244838169643e-09	1.219736e-04	-1.669744e-08
3.347622419084822e-09	1.221906e-04	-1.684872e-08
3.360000000000000e-09	1.226335e-04	-1.700000e-08
3.360427246093750e-09	1.226493e-04	-1.700855e-08
3.365902971540180e-09	1.228654e-04	-1.711806e-08
3.371378696986609e-09	1.230916e-04	-1.722757e-08
3.376854422433038e-09	1.233279e-04	-1.733709e-08
3.382330147879468e-09	1.235744e-04	-1.744660e-08
3.387805873325897e-09	1.238310e-04	-1.755612e-08
3.393281598772326e-09	1.240978e-04	-1.766563e-08
3.398757324218756e-09	1.243747e-04	-1.777515e-08
3.400363420758934e-09	1.244532e-04	-1.780727e-08
3.401969517299111e-09	1.245314e-04	-1.783939e-08
3.403575613839289e-09	1.246093e-04	-1.787151e-08
3.405181710379467e-09	1.246869e-04	-1.790363e-08
3.406787806919644e-09	1.247642e-04	-1.793576e-08
3.408393903459822e-09	1.248412e-04	-1.796788e-08
3.410000000000000e-09	1.249179e-04	-1.800000e-08
3.417890973772322e-09	1.252805e-04	-1.808768e-08
3.425781947544645e-09	1.256317e-04	-1.817535e-08
3.433672921316967e-09	1.259715e-04	-1.826303e-08
3.441563895089290e-09	1.262999e-04	-1.835071e-08
3.449454868861613e-09	1.266170e-04	-1.843839e-08
3.457345842633936e-09	1.269226e-04	-1.852606e-08
3.465236816406258e-09	1.272168e-04	-1.861374e-08
3.470211704799114e-09	1.274111e-04	-1.866888e-08
3.475186593191970e-09	1.276083e-04	-1.872411e-08
3.480161481584826e-09	1.278082e-04	-1.877942e-08
3.485136369977682e-09	1.280110e-04	-1.883481e-08
3.490111258370538e-09	1.282166e-04	-1.889030e-08
3.495086146763394e-09	1.284250e-04	-1.894587e-08
3.500061035156250e-09	1.286362e-04	-1.900153e-08
3.500183105468750e-09	1.286413e-04	-1.900458e-08
3.502816336495536e-09	1.287515e-04	-1.907041e-08
3.505449567522322e-09	1.288597e-04	-1.913624e-08
3.508082798549108e-09	1.289658e-04	-1.920207e-08
3.510716029575895e-09	1.290698e-04	-1.926790e-08
3.513349260602681e-09	1.291718e-04	-1.933373e-08
3.515982491629467e-09	1.292718e-04	-1.939956e-08
3.518615722656253e-09	1.293697e-04	-1.946539e-08
3.539978027343756e-09	1.299692e-04	-1.999945e-08
3.552805524553552e-09	1.300982e-04	-2.012787e-08
3.565633021763347e-09	1.300862e-04	-2.025626e-08
3.578460518973142e-09	1.299332e-04	-2.038462e-08
3.591288016182938e-09	1.296392e-04	-2.051294e-08
3.604115513392734e-09	1.292042e-04	-2.064123e-08
3.616943010602529e-09	1.286282e-04	-2.076948e-08
3.629770507812324e-09	1.279112e-04	-2.089770e-08
3.630282854352528e-09	1.278818e-04	-2.090594e-08
3.630795200892732e-09	1.278525e-04	-2.091442e-08
3.631307547432936e-09	1.278232e-04	-2.092314e-08
3.631819893973139e-09	1.277940e-04	-2.093210e-08
3.632332240513343e-09	1.277648e-04	-2.094130e-08
3.632844587053546e-09	1.277357e-04	-2.095074e-08
3.633356933593750e-09	1.277066e-04	-2.096042e-08
3.679743652343757e-09	1.248453e-04	-2.179539e-08
3.680172642299114e-09	1.248179e-04	-2.180048e-08
3.680601632254469e-09	1.247906e-04	-2.180527e-08
3.681030622209826e-09	1.247633e-04	-2.180973e-08
3.681459612165182e-09	1.247360e-04	-2.181388e-08
3.681888602120538e-09	1.247088e-04	-2.181771e-08
3.682317592075894e-09	1.246816e-04	-2.182122e-08
3.682746582031250e-09	1.246544e-04	-2.182441e-08
3.695211356026786e-09	1.238578e-04	-2.193521e-08
3.707676130022322e-09	1.230085e-04	-2.204601e-08
3.720140904017857e-09	1.221064e-04	-2.215681e-08
3.732605678013393e-09	1.211516e-04	-2.226761e-08
3.745070452008929e-09	1.201441e-04	-2.237840e-08
3.757535226004464e-09	1.190839e-04	-2.248920e-08
3.770000000000000e-09	1.179709e-04	-2.260000e-08
3.770427246093750e-09	1.179342e-04	-2.260769e-08
3.775554199218747e-09	1.174860e-04	-2.269998e-08
3.780681152343745e-09	1.170437e-04	-2.279226e-08
3.785808105468742e-09	1.166072e-04	-2.288455e-08
3.790935058593740e-09	1.161767e-04	-2.297683e-08
3.796062011718737e-09	1.157521e-04	-2.306912e-08
3.801188964843735e-09	1.153334e-04	-2.316140e-08
3.806315917968732e-09	1.149206e-04	-2.325369e-08
3.808270786830342e-09	1.147661e-04	-2.328887e-08
3.810225655691951e-09	1.146128e-04	-2.332406e-08
3.812180524553561e-09	1.144606e-04	-2.335925e-08
3.814135393415170e-09	1.143095e-04	-2.339444e-08
3.816090262276780e-09	1.141596e-04	-2.342962e-08
3.818045131138390e-09	1.140109e-04	-2.346481e-08
3.820000000000000e-09	1.138633e-04	-2.350000e-08
3.824141671316962e-09	1.135542e-04	-2.354142e-08
3.828283342633924e-09	1.132512e-04	-2.358283e-08
3.832425013950886e-09	1.129543e-04	-2.362425e-08
3.836566685267849e-09	1.126636e-04	-2.366567e-08
3.840708356584811e-09	1.123791e-04	-2.370708e-08
3.844850027901773e-09	1.121007e-04	-2.374850e-08
3.848991699218735e-09	1.118285e-04	-2.378992e-08
3.899999999999999e-09	1.088369e-04	-2.430000e-08
3.907106236049103e-09	1.084401e-04	-2.441370e-08
3.914212472098206e-09	1.080417e-04	-2.452740e-08
3.921318708147310e-09	1.076416e-04	-2.464110e-08
3.928424944196413e-09	1.072400e-04	-2.475480e-08
3.935531180245517e-09	1.068368e-04	-2.486850e-08
3.942637416294620e-09	1.064319e-04	-2.498220e-08
3.949743652343724e-09	1.060255e-04	-2.509590e-08
3.950259835379442e-09	1.059960e-04	-2.510146e-08
3.950776018415160e-09	1.059664e-04	-2.510679e-08
3.951292201450878e-09	1.059368e-04	-2.511188e-08
3.951808384486595e-09	1.059071e-04	-2.511673e-08
3.952324567522313e-09	1.058774e-04	-2.512134e-08
3.952840750558031e-09	1.058477e-04	-2.512571e-08
3.953356933593749e-09	1.058179e-04	-2.512984e-08
3.965734514508928e-09	1.051047e-04	-2.523986e-08
3.978112095424107e-09	1.043831e-04	-2.534989e-08
3.990489676339285e-09	1.036530e-04	-2.545991e-08
4.002867257254464e-09	1.029145e-04	-2.556993e-08
4.015244838169642e-09	1.021676e-04	-2.567995e-08
4.027622419084821e-09	1.014122e-04	-2.578998e-08
4.040000000000000e-09	1.006483e-04	-2.590000e-08
4.040183105468751e-09	1.006370e-04	-2.590256e-08
4.042205984933035e-09	1.005126e-04	-2.593088e-08
4.044228864397320e-09	1.003875e-04	-2.595920e-08
4.046251743861605e-09	1.002617e-04	-2.598752e-08
4.048274623325889e-09	1.001352e-04	-2.601584e-08
4.050297502790174e-09	1.000080e-04	-2.604416e-08
4.052320382254459e-09	9.988016e-05	-2.607248e-08
4.054343261718744e-09	9.975164e-05	-2.610081e-08
4.089743652343725e-09	9.730109e-05	-2.659641e-08
4.090172642299086e-09	9.726865e-05	-2.660094e-08
4.090601632254446e-09	9.723618e-05	-2.660530e-08
4.091030622209807e-09	9.720368e-05	-2.660948e-08
4.091459612165168e-09	9.717116e-05	-2.661348e-08
4.091888602120528e-09	9.713862e-05	-2.661730e-08
4.092317592075888e-09	9.710605e-05	-2.662095e-08
4.092746582031249e-09	9.707345e-05	-2.662441e-08
4.108005371093741e-09	9.588073e-05	-2.676005e-08
4.180000000000000e-09	9.071077e-05	-2.740000e-08
4.180427246093750e-09	9.068268e-05	-2.740748e-08
4.184333496093748e-09	9.042192e-05	-2.747584e-08
4.188239746093747e-09	9.015635e-05	-2.754420e-08
4.192145996093744e-09	8.988599e-05	-2.761256e-08
4.196052246093742e-09	8.961082e-05	-2.768091e-08
4.199958496093740e-09	8.933084e-05	-2.774927e-08
4.203864746093739e-09	8.904607e-05	-2.781763e-08
4.207770996093736e-09	8.875649e-05	-2.788599e-08
4.219978027343730e-09	8.780239e-05	-2.809962e-08
4.232805524553632e-09	8.670993e-05	-2.819948e-08
4.245633021763535e-09	8.556490e-05	-2.829932e-08
4.258460518973437e-09	8.436731e-05	-2.839915e-08
4.271288016183339e-09	8.311715e-05	-2.849895e-08
4.284115513393241e-09	8.181442e-05	-2.859872e-08
4.296943010603144e-09	8.045912e-05	-2.869848e-08
4.309770507813046e-09	7.905126e-05	-2.879822e-08
4.310195661272789e-09	7.900588e-05	-2.880338e-08
4.310620814732532e-09	7.896049e-05	-2.880874e-08
4.311045968192275e-09	7.891509e-05	-2.881429e-08
4.311471121652019e-09	7.886968e-05	-2.882004e-08
4.311896275111762e-09	7.882427e-05	-2.882598e-08
4.312321428571506e-09	7.877884e-05	-2.883212e-08
4.312746582031249e-09	7.873341e-05	-2.883845e-08
4.319460449218745e-09	7.802253e-05	-2.893245e-08
4.326174316406242e-09	7.731135e-05	-2.902644e-08
4.332888183593738e-09	7.659989e-05	-2.912043e-08
4.339602050781235e-09	7.588813e-05	-2.921443e-08
4.346315917968731e-09	7.517609e-05	-2.930842e-08
4.353029785156228e-09	7.446375e-05	-2.940242e-08
4.359743652343724e-09	7.375113e-05	-2.949641e-08
4.360172642299085e-09	7.370503e-05	-2.950031e-08
4.360601632254446e-09	7.365887e-05	-2.950394e-08
4.361030622209807e-09	7.361266e-05	-2.950733e-08
4.361459612165167e-09	7.356640e-05	-2.951046e-08
4.361888602120528e-09	7.352008e-05	-2.951333e-08
4.362317592075888e-09	7.347370e-05	-2.951595e-08
4.362746582031249e-09	7.342728e-05	-2.951831e-08
4.373994489397315e-09	7.216917e-05	-2.959330e-08
4.385242396763381e-09	7.091654e-05	-2.966828e-08
4.396490304129446e-09	6.966937e-05	-2.974327e-08
4.407738211495512e-09	6.842768e-05	-2.981825e-08
4.418986118861577e-09	6.719145e-05	-2.989324e-08
4.430234026227643e-09	6.596070e-05	-2.996823e-08
4.441481933593708e-09	6.473541e-05	-3.004321e-08
4.450000000000000e-09	6.385957e-05	-3.010000e-08
4.450183105468751e-09	6.384120e-05	-3.010256e-08
4.451944405691964e-09	6.366385e-05	-3.012722e-08
4.453705705915177e-09	6.348747e-05	-3.015188e-08
4.455467006138391e-09	6.331207e-05	-3.017654e-08
4.457228306361604e-09	6.313764e-05	-3.020120e-08
4.458989606584818e-09	6.296418e-05	-3.022586e-08
4.460750906808031e-09	6.279170e-05	-3.025051e-08
4.462512207031244e-09	6.262019e-05	-3.027517e-08
4.499743652343725e-09	5.925922e-05	-3.079641e-08
4.500172642299086e-09	5.922381e-05	-3.080055e-08
4.500601632254446e-09	5.918851e-05	-3.080446e-08
4.501030622209807e-09	5.915330e-05	-3.080814e-08
4.501459612165168e-09	5.911819e-05	-3.081159e-08
4.501888602120528e-09	5.908318e-05	-3.081482e-08
4.502317592075888e-09	5.904826e-05	-3.081782e-08
4.502746582031249e-09	5.901344e-05	-3.082060e-08
4.513645717075887e-09	5.815204e-05	-3.090234e-08
4.524544852120523e-09	5.735411e-05	-3.098409e-08
4.535443987165161e-09	5.661966e-05	-3.106583e-08
4.546343122209798e-09	5.594869e-05	-3.114757e-08
4.557242257254435e-09	5.534120e-05	-3.122932e-08
4.568141392299072e-09	5.479718e-05	-3.131106e-08
4.579040527343710e-09	5.431664e-05	-3.139280e-08
4.579657156808001e-09	5.429432e-05	-3.139812e-08
4.580273786272292e-09	5.427238e-05	-3.140392e-08
4.580890415736584e-09	5.425082e-05	-3.141022e-08
4.581507045200874e-09	5.422965e-05	-3.141700e-08
4.582123674665166e-09	5.420885e-05	-3.142427e-08
4.582740304129457e-09	5.418843e-05	-3.143203e-08
4.583356933593749e-09	5.416839e-05	-3.144028e-08
4.589983607700888e-09	5.397556e-05	-3.151980e-08
4.596610281808027e-09	5.384314e-05	-3.159932e-08
4.603236955915167e-09	5.377114e-05	-3.167884e-08
4.609863630022306e-09	5.375953e-05	-3.175836e-08
4.616490304129446e-09	5.380834e-05	-3.183788e-08
4.623116978236585e-09	5.391756e-05	-3.191740e-08
4.629743652343725e-09	5.408718e-05	-3.199692e-08
4.630172642299085e-09	5.410058e-05	-3.200054e-08
4.630601632254446e-09	5.411425e-05	-3.200396e-08
4.631030622209807e-09	5.412820e-05	-3.200721e-08
4.631459612165167e-09	5.414243e-05	-3.201026e-08
4.631888602120528e-09	5.415694e-05	-3.201313e-08
4.632317592075889e-09	5.417174e-05	-3.201581e-08
4.632746582031249e-09	5.418681e-05	-3.201831e-08
4.644866420200886e-09	5.472885e-05	-3.209911e-08
4.656986258370522e-09	5.540196e-05	-3.217991e-08
4.669106096540159e-09	5.620615e-05	-3.226071e-08
4.681225934709795e-09	5.714142e-05	-3.234151e-08
4.693345772879432e-09	5.820776e-05	-3.242230e-08
4.705465611049068e-09	5.940517e-05	-3.250310e-08
4.717585449218705e-09	6.073367e-05	-3.258390e-08
4.718195800781205e-09	6.080283e-05	-3.258797e-08
4.719999999999999e-09	6.100894e-05	-3.260000e-08
4.720427246093750e-09	6.105837e-05	-3.260513e-08
4.727472446986603e-09	6.189347e-05	-3.268967e-08
4.734517647879456e-09	6.275863e-05	-3.277421e-08
4.741562848772310e-09	6.365384e-05	-3.285875e-08
4.748608049665164e-09	6.457911e-05	-3.294330e-08
4.755653250558018e-09	6.553443e-05	-3.302784e-08
4.762698451450871e-09	6.651981e-05	-3.311238e-08
4.769743652343724e-09	6.753523e-05	-3.319692e-08
4.770259835379442e-09	6.761037e-05	-3.320068e-08
4.770776018415160e-09	6.768562e-05	-3.320422e-08
4.771292201450878e-09	6.776097e-05	-3.320754e-08
4.771808384486595e-09	6.783643e-05	-3.321064e-08
4.772324567522313e-09	6.791200e-05	-3.321353e-08
4.772840750558031e-09	6.798768e-05	-3.321620e-08
4.773356933593749e-09	6.806347e-05	-3.321865e-08
4.785734514508928e-09	7.003231e-05	-3.328742e-08
4.798112095424106e-09	7.192258e-05	-3.335618e-08
4.810489676339285e-09	7.373429e-05	-3.342494e-08
4.822867257254464e-09	7.546744e-05	-3.349371e-08
4.835244838169642e-09	7.712203e-05	-3.356247e-08
4.847622419084820e-09	7.869805e-05	-3.363124e-08
4.859999999999999e-09	8.019551e-05	-3.370000e-08
4.860427246093749e-09	8.023945e-05	-3.370641e-08
4.864333496093747e-09	8.063275e-05	-3.376500e-08
4.868239746093746e-09	8.100658e-05	-3.382360e-08
4.872145996093744e-09	8.136095e-05	-3.388219e-08
4.876052246093742e-09	8.169586e-05	-3.394078e-08
4.879958496093739e-09	8.201130e-05	-3.399938e-08
4.883864746093738e-09	8.230727e-05	-3.405797e-08
4.887770996093736e-09	8.258378e-05	-3.411656e-08
4.899978027343729e-09	8.332980e-05	-3.429967e-08
4.912195172991136e-09	8.388108e-05	-3.436764e-08
4.924412318638542e-09	8.425210e-05	-3.443558e-08
4.936629464285948e-09	8.444286e-05	-3.450351e-08
4.948846609933354e-09	8.445337e-05	-3.457141e-08
4.961063755580760e-09	8.428362e-05	-3.463929e-08
4.973280901228167e-09	8.393361e-05	-3.470715e-08
4.985498046875573e-09	8.340335e-05	-3.477499e-08
4.986202218192455e-09	8.336909e-05	-3.477850e-08
4.986906389509337e-09	8.333421e-05	-3.478224e-08
4.987610560826220e-09	8.329871e-05	-3.478620e-08
4.988314732143103e-09	8.326258e-05	-3.479039e-08
4.989018903459985e-09	8.322582e-05	-3.479479e-08
4.989723074776867e-09	8.318843e-05	-3.479942e-08
4.990427246093750e-09	8.315042e-05	-3.480427e-08
4.993897530691962e-09	8.295318e-05	-3.483898e-08
4.997367815290175e-09	8.274178e-05	-3.487368e-08
5.000838099888387e-09	8.251623e-05	-3.490838e-08
5.004308384486600e-09	8.227654e-05	-3.494308e-08
5.007778669084813e-09	8.202269e-05	-3.497779e-08
5.011248953683025e-09	8.175469e-05	-3.501249e-08
5.014719238281238e-09	8.147254e-05	-3.504719e-08
5.018294154575879e-09	8.116528e-05	-3.508294e-08
5.021869070870519e-09	8.084567e-05	-3.511869e-08
5.025443987165161e-09	8.051373e-05	-3.515444e-08
5.029018903459801e-09	8.016945e-05	-3.519019e-08
5.032593819754443e-09	7.981283e-05	-3.522594e-08
5.036168736049083e-09	7.944387e-05	-3.526169e-08
5.039743652343725e-09	7.906258e-05	-3.529744e-08
5.040085449218728e-09	7.902545e-05	-3.529997e-08
5.040427246093732e-09	7.898832e-05	-3.530235e-08
5.040769042968735e-09	7.895119e-05	-3.530457e-08
5.041110839843739e-09	7.891404e-05	-3.530663e-08
5.041452636718742e-09	7.887689e-05	-3.530854e-08
5.041794433593746e-09	7.883973e-05	-3.531028e-08
5.042136230468750e-09	7.880256e-05	-3.531187e-08
5.054688197544643e-09	7.735446e-05	-3.538160e-08
5.067240164620535e-09	7.591538e-05	-3.545134e-08
5.079792131696428e-09	7.448530e-05	-3.552107e-08
5.092344098772321e-09	7.306422e-05	-3.559080e-08
5.104896065848214e-09	7.165216e-05	-3.566053e-08
5.117448032924106e-09	7.024911e-05	-3.573027e-08
5.129999999999999e-09	6.885507e-05	-3.580000e-08
5.130183105468750e-09	6.883465e-05	-3.580183e-08
5.131857212611606e-09	6.864491e-05	-3.581857e-08
5.133531319754463e-09	6.845459e-05	-3.583531e-08
5.135205426897319e-09	6.826370e-05	-3.585205e-08
5.136879534040175e-09	6.807223e-05	-3.586879e-08
5.138553641183031e-09	6.788019e-05	-3.588554e-08
5.140227748325888e-09	6.768758e-05	-3.590228e-08
5.141901855468744e-09	6.749439e-05	-3.591902e-08
5.179743652343725e-09	6.302344e-05	-3.629744e-08
5.180085449218728e-09	6.298293e-05	-3.630011e-08
5.180427246093732e-09	6.294240e-05	-3.630265e-08
5.180769042968735e-09	6.290185e-05	-3.630506e-08
5.181110839843739e-09	6.286128e-05	-3.630733e-08
5.181452636718742e-09	6.282070e-05	-3.630947e-08
5.181794433593746e-09	6.278009e-05	-3.631148e-08
5.182136230468750e-09	6.273947e-05	-3.631335e-08
5.193259626116071e-09	6.141113e-05	-3.638287e-08
5.204383021763393e-09	6.011118e-05	-3.645239e-08
5.215506417410714e-09	5.883962e-05	-3.652191e-08
5.226629813058035e-09	5.759644e-05	-3.659143e-08
5.237753208705357e-09	5.638164e-05	-3.666096e-08
5.248876604352678e-09	5.519523e-05	-3.673048e-08
5.260000000000000e-09	5.403721e-05	-3.680000e-08
5.309743652343725e-09	4.935668e-05	-3.719795e-08
5.310085449218728e-09	4.932569e-05	-3.720020e-08
5.310427246093732e-09	4.929469e-05	-3.720236e-08
5.310769042968735e-09	4.926368e-05	-3.720444e-08
5.311110839843739e-09	4.923265e-05	-3.720643e-08
5.311452636718742e-09	4.920161e-05	-3.720833e-08
5.311794433593747e-09	4.917055e-05	-3.721014e-08
5.312136230468750e-09	4.913948e-05	-3.721187e-08
5.324953613281243e-09	4.797558e-05	-3.728308e-08
5.335674525669637e-09	4.698015e-05	-3.734264e-08
5.346395438058031e-09	4.601489e-05	-3.740220e-08
5.357116350446425e-09	4.507982e-05	-3.746176e-08
5.367837262834818e-09	4.417493e-05	-3.752132e-08
5.378558175223212e-09	4.330022e-05	-3.758088e-08
5.389279087611605e-09	4.245570e-05	-3.764044e-08
5.400000000000000e-09	4.164136e-05	-3.770000e-08
5.400183105468750e-09	4.162837e-05	-3.770147e-08
5.401857212611606e-09	4.150889e-05	-3.771486e-08
5.403531319754463e-09	4.139081e-05	-3.772825e-08
5.405205426897319e-09	4.127412e-05	-3.774164e-08
5.406879534040175e-09	4.115883e-05	-3.775504e-08
5.408553641183031e-09	4.104494e-05	-3.776843e-08
5.410227748325888e-09	4.093245e-05	-3.778182e-08
5.411901855468744e-09	4.082135e-05	-3.779521e-08
5.449743652343725e-09	3.865267e-05	-3.809795e-08
5.450172642299085e-09	3.863149e-05	-3.810036e-08
5.450601632254446e-09	3.861040e-05	-3.810264e-08
5.451030622209807e-09	3.858939e-05	-3.810480e-08
5.451459612165167e-09	3.856846e-05	-3.810684e-08
5.451888602120528e-09	3.854762e-05	-3.810875e-08
5.452317592075889e-09	3.852686e-05	-3.811054e-08
5.452746582031249e-09	3.850619e-05	-3.811221e-08
5.465211356026785e-09	3.792124e-05	-3.816761e-08
5.477676130022321e-09	3.737503e-05	-3.822301e-08
5.490140904017856e-09	3.686758e-05	-3.827841e-08
5.502605678013393e-09	3.639886e-05	-3.833380e-08
5.515070452008928e-09	3.596889e-05	-3.838920e-08
5.527535226004464e-09	3.557766e-05	-3.844460e-08
5.539999999999999e-09	3.522518e-05	-3.850000e-08
5.540183105468750e-09	3.522096e-05	-3.850183e-08
5.541944405691964e-09	3.518027e-05	-3.851944e-08
5.543705705915176e-09	3.514090e-05	-3.853706e-08
5.545467006138390e-09	3.510284e-05	-3.855467e-08
5.547228306361604e-09	3.506611e-05	-3.857228e-08
5.548989606584817e-09	3.503069e-05	-3.858990e-08
5.550750906808030e-09	3.499660e-05	-3.860751e-08
5.552512207031244e-09	3.496382e-05	-3.862512e-08
5.579978027343730e-09	3.456287e-05	-3.889978e-08
5.580162527901852e-09	3.456056e-05	-3.890067e-08
5.580347028459976e-09	3.455824e-05	-3.890155e-08
5.580531529018099e-09	3.455590e-05	-3.890240e-08
5.580716029576222e-09	3.455355e-05	-3.890324e-08
5.580900530134345e-09	3.455119e-05	-3.890406e-08
5.581085030692468e-09	3.454881e-05	-3.890486e-08
5.581269531250591e-09	3.454643e-05	-3.890564e-08
5.591907087054157e-09	3.440950e-05	-3.895292e-08
5.602544642857723e-09	3.426293e-05	-3.900020e-08
5.613182198661289e-09	3.410672e-05	-3.904748e-08
5.623819754464855e-09	3.394087e-05	-3.909475e-08
5.634457310268420e-09	3.376539e-05	-3.914203e-08
5.645094866071987e-09	3.358026e-05	-3.918931e-08
5.655732421875553e-09	3.338548e-05	-3.923659e-08
5.669770507813045e-09	3.314934e-05	-3.929898e-08
5.670195661272788e-09	3.314251e-05	-3.930193e-08
5.670620814732532e-09	3.313571e-05	-3.930499e-08
5.671045968192276e-09	3.312894e-05	-3.930817e-08
5.671471121652019e-09	3.312219e-05	-3.931145e-08
5.671896275111762e-09	3.311547e-05	-3.931485e-08
5.672321428571506e-09	3.310878e-05	-3.931835e-08
5.672746582031249e-09	3.310211e-05	-3.932197e-08
5.679460449218746e-09	3.299747e-05	-3.937568e-08
5.686174316406242e-09	3.290185e-05	-3.942939e-08
5.692888183593739e-09	3.281525e-05	-3.948310e-08
5.699602050781235e-09	3.273767e-05	-3.953682e-08
5.706315917968732e-09	3.266911e-05	-3.959053e-08
5.713029785156228e-09	3.260956e-05	-3.964424e-08
5.719743652343725e-09	3.255903e-05	-3.969795e-08
5.720172642299086e-09	3.255625e-05	-3.970036e-08
5.720601632254445e-09	3.255349e-05	-3.970264e-08
5.721030622209806e-09	3.255077e-05	-3.970480e-08
5.721459612165167e-09	3.254808e-05	-3.970684e-08
5.721888602120528e-09	3.254541e-05	-3.970875e-08
5.722317592075888e-09	3.254278e-05	-3.971054e-08
5.722746582031249e-09	3.254018e-05	-3.971221e-08
5.735211356026784e-09	3.251330e-05	-3.976761e-08
5.747676130022321e-09	3.245285e-05	-3.982300e-08
5.760140904017856e-09	3.235883e-05	-3.987840e-08
5.772605678013392e-09	3.223125e-05	-3.993380e-08
5.785070452008928e-09	3.207011e-05	-3.998920e-08
5.797535226004464e-09	3.187539e-05	-4.004460e-08
5.810000000000000e-09	3.164711e-05	-4.010000e-08
5.810183105468750e-09	3.164312e-05	-4.010110e-08
5.812118791852678e-09	3.160290e-05	-4.011271e-08
5.814054478236605e-09	3.156205e-05	-4.012433e-08
5.815990164620533e-09	3.152057e-05	-4.013594e-08
5.817925851004460e-09	3.147846e-05	-4.014756e-08
5.819861537388388e-09	3.143572e-05	-4.015917e-08
5.821797223772315e-09	3.139236e-05	-4.017078e-08
5.823732910156243e-09	3.134836e-05	-4.018240e-08
5.859743652343725e-09	3.039832e-05	-4.039846e-08
5.860172642299085e-09	3.038547e-05	-4.040075e-08
5.860601632254446e-09	3.037260e-05	-4.040300e-08
5.861030622209807e-09	3.035971e-05	-4.040522e-08
5.861459612165167e-09	3.034680e-05	-4.040740e-08
5.861888602120528e-09	3.033387e-05	-4.040955e-08
5.862317592075889e-09	3.032092e-05	-4.041166e-08
5.862746582031249e-09	3.030795e-05	-4.041373e-08
5.872948172433030e-09	2.996314e-05	-4.046474e-08
5.883149762834810e-09	2.964535e-05	-4.051575e-08
5.893351353236590e-09	2.935457e-05	-4.056675e-08
5.903552943638372e-09	2.909081e-05	-4.061776e-08
5.913754534040152e-09	2.885406e-05	-4.066877e-08
5.923956124441932e-09	2.864433e-05	-4.071978e-08
5.934157714843712e-09	2.846161e-05	-4.077079e-08
5.935378417968712e-09	2.844372e-05	-4.077689e-08
5.936099679129431e-09	2.843331e-05	-4.078041e-08
5.936820940290152e-09	2.842301e-05	-4.078398e-08
5.937542201450871e-09	2.841281e-05	-4.078760e-08
5.938263462611591e-09	2.840272e-05	-4.079127e-08
5.938984723772310e-09	2.839273e-05	-4.079498e-08
5.939705984933030e-09	2.838285e-05	-4.079875e-08
5.940427246093750e-09	2.837307e-05	-4.080256e-08
5.945379813058033e-09	2.830925e-05	-4.083228e-08
5.950332380022316e-09	2.824380e-05	-4.086199e-08
5.955284946986599e-09	2.817672e-05	-4.089171e-08
5.960237513950883e-09	2.810802e-05	-4.092142e-08
5.965190080915166e-09	2.803769e-05	-4.095114e-08
5.970142647879450e-09	2.796574e-05	-4.098086e-08
5.975095214843732e-09	2.789215e-05	-4.101057e-08
5.977224469866056e-09	2.785833e-05	-4.102335e-08
5.979353724888380e-09	2.782404e-05	-4.103612e-08
5.981482979910704e-09	2.778931e-05	-4.104890e-08
5.983612234933028e-09	2.775412e-05	-4.106167e-08
5.985741489955352e-09	2.771847e-05	-4.107445e-08
5.987870744977676e-09	2.768237e-05	-4.108722e-08
5.989999999999999e-09	2.764582e-05	-4.110000e-08
6.025705566406232e-09	2.715519e-05	-4.125869e-08
6.033461914062484e-09	2.709170e-05	-4.129316e-08
6.041218261718737e-09	2.702980e-05	-4.132764e-08
6.048974609374989e-09	2.696950e-05	-4.136211e-08
6.056730957031242e-09	2.691080e-05	-4.139658e-08
6.064487304687495e-09	2.685370e-05	-4.143105e-08
6.072243652343747e-09	2.679820e-05	-4.146553e-08
6.080000000000000e-09	2.674429e-05	-4.150000e-08
6.080183105468750e-09	2.674281e-05	-4.150110e-08
6.081944405691964e-09	2.672828e-05	-4.151167e-08
6.083705705915177e-09	2.671358e-05	-4.152224e-08
6.085467006138390e-09	2.669870e-05	-4.153280e-08
6.087228306361604e-09	2.668366e-05	-4.154337e-08
6.088989606584818e-09	2.666845e-05	-4.155394e-08
6.090750906808030e-09	2.665306e-05	-4.156451e-08
6.092512207031244e-09	2.663750e-05	-4.157507e-08
6.129743652343725e-09	2.634762e-05	-4.179846e-08
6.130172642299086e-09	2.634539e-05	-4.180027e-08
6.130601632254446e-09	2.634321e-05	-4.180198e-08
6.131030622209806e-09	2.634105e-05	-4.180360e-08
6.131459612165167e-09	2.633892e-05	-4.180513e-08
6.131888602120528e-09	2.633683e-05	-4.180656e-08
6.132317592075888e-09	2.633477e-05	-4.180791e-08
6.132746582031249e-09	2.633274e-05	-4.180916e-08
6.143645717075886e-09	2.628367e-05	-4.184548e-08
6.154544852120523e-09	2.627385e-05	-4.188181e-08
6.165443987165161e-09	2.630328e-05	-4.191815e-08
6.176343122209797e-09	2.637197e-05	-4.195448e-08
6.187242257254435e-09	2.647990e-05	-4.199081e-08
6.198141392299072e-09	2.662708e-05	-4.202714e-08
6.209040527343709e-09	2.681351e-05	-4.206347e-08
6.220000000000000e-09	2.704156e-05	-4.210000e-08
6.220183105468750e-09	2.704579e-05	-4.210137e-08
6.221857212611606e-09	2.708315e-05	-4.211393e-08
6.223531319754463e-09	2.712069e-05	-4.212649e-08
6.225205426897319e-09	2.715840e-05	-4.213904e-08
6.226879534040175e-09	2.719628e-05	-4.215160e-08
6.228553641183031e-09	2.723434e-05	-4.216415e-08
6.230227748325888e-09	2.727256e-05	-4.217671e-08
6.231901855468744e-09	2.731096e-05	-4.218926e-08
6.235912737165171e-09	2.740424e-05	-4.221934e-08
6.239923618861597e-09	2.749746e-05	-4.224943e-08
6.243934500558024e-09	2.759063e-05	-4.227951e-08
6.247945382254450e-09	2.768375e-05	-4.230959e-08
6.251956263950877e-09	2.777681e-05	-4.233967e-08
6.255967145647303e-09	2.786981e-05	-4.236975e-08
6.259978027343730e-09	2.796276e-05	-4.239984e-08
6.260131835937618e-09	2.796629e-05	-4.240044e-08
6.261689453125185e-09	2.800236e-05	-4.240563e-08
6.263247070312751e-09	2.803848e-05	-4.241082e-08
6.264804687500318e-09	2.807465e-05	-4.241602e-08
6.266362304687886e-09	2.811088e-05	-4.242121e-08
6.267919921875453e-09	2.814716e-05	-4.242640e-08
6.269477539063019e-09	2.818349e-05	-4.243159e-08
6.271035156250586e-09	2.821987e-05	-4.243678e-08
6.281847098214866e-09	2.847372e-05	-4.247282e-08
6.292659040179146e-09	2.873655e-05	-4.250886e-08
6.303470982143426e-09	2.900835e-05	-4.254490e-08
6.314282924107707e-09	2.928911e-05	-4.258094e-08
6.325094866071987e-09	2.957885e-05	-4.261698e-08
6.335906808036267e-09	2.987756e-05	-4.265302e-08
6.346718750000547e-09	3.018525e-05	-4.268906e-08
6.347248535156719e-09	3.020059e-05	-4.269076e-08
6.347778320312890e-09	3.021598e-05	-4.269250e-08
6.348308105469062e-09	3.023141e-05	-4.269427e-08
6.348837890625234e-09	3.024689e-05	-4.269608e-08
6.349367675781407e-09	3.026240e-05	-4.269792e-08
6.349897460937578e-09	3.027796e-05	-4.269980e-08
6.350427246093750e-09	3.029357e-05	-4.270171e-08
6.353374372209820e-09	3.038053e-05	-4.271350e-08
6.356321498325890e-09	3.046926e-05	-4.272529e-08
6.359268624441960e-09	3.055974e-05	-4.273707e-08
6.362215750558030e-09	3.065198e-05	-4.274886e-08
6.365162876674100e-09	3.074598e-05	-4.276065e-08
6.368110002790169e-09	3.084174e-05	-4.277244e-08
6.371057128906240e-09	3.093925e-05	-4.278423e-08
6.399743652343725e-09	3.198206e-05	-4.289898e-08
6.400085449218728e-09	3.199513e-05	-4.290021e-08
6.400427246093732e-09	3.200815e-05	-4.290142e-08
6.400769042968735e-09	3.202112e-05	-4.290261e-08
6.401110839843739e-09	3.203405e-05	-4.290377e-08
6.401452636718742e-09	3.204694e-05	-4.290491e-08
6.401794433593746e-09	3.205978e-05	-4.290603e-08
6.402136230468749e-09	3.207258e-05	-4.290712e-08
6.414517647879457e-09	3.253114e-05	-4.294839e-08
6.426899065290165e-09	3.291837e-05	-4.298966e-08
6.439280482700873e-09	3.323427e-05	-4.303094e-08
6.451661900111580e-09	3.347883e-05	-4.307221e-08
6.464043317522288e-09	3.365206e-05	-4.311348e-08
6.476424734932996e-09	3.375395e-05	-4.315475e-08
6.488806152343704e-09	3.378451e-05	-4.319602e-08
6.490000000000000e-09	3.378843e-05	-4.320000e-08
6.490183105468750e-09	3.378911e-05	-4.320110e-08
6.491770019531249e-09	3.379381e-05	-4.321062e-08
6.493356933593749e-09	3.379831e-05	-4.322014e-08
6.494943847656248e-09	3.380262e-05	-4.322966e-08
6.496530761718747e-09	3.380673e-05	-4.323918e-08
6.498117675781246e-09	3.381065e-05	-4.324871e-08
6.499704589843745e-09	3.381437e-05	-4.325823e-08
6.501291503906245e-09	3.381789e-05	-4.326775e-08
6.506784667968742e-09	3.383016e-05	-4.330071e-08
6.512277832031239e-09	3.384145e-05	-4.333367e-08
6.517770996093736e-09	3.385177e-05	-4.336663e-08
6.523264160156233e-09	3.386111e-05	-4.339959e-08
6.528757324218730e-09	3.386947e-05	-4.343255e-08
6.534250488281228e-09	3.387685e-05	-4.346550e-08
6.539743652343725e-09	3.388325e-05	-4.349846e-08
6.539998256138371e-09	3.388351e-05	-4.349959e-08
6.540252859933018e-09	3.388376e-05	-4.350060e-08
6.540507463727664e-09	3.388399e-05	-4.350148e-08
6.540762067522310e-09	3.388420e-05	-4.350225e-08
6.541016671316956e-09	3.388440e-05	-4.350289e-08
6.541271275111603e-09	3.388458e-05	-4.350341e-08
6.541525878906249e-09	3.388474e-05	-4.350381e-08
6.542136230468749e-09	3.388520e-05	-4.350534e-08
6.553209751674100e-09	3.391851e-05	-4.353303e-08
6.564283272879452e-09	3.390817e-05	-4.356071e-08
6.575356794084803e-09	3.385419e-05	-4.358839e-08
6.586430315290155e-09	3.375656e-05	-4.361608e-08
6.597503836495506e-09	3.361529e-05	-4.364376e-08
6.608577357700858e-09	3.343038e-05	-4.367144e-08
6.619650878906209e-09	3.320182e-05	-4.369913e-08
6.620005929129429e-09	3.319234e-05	-4.370060e-08
6.620360979352649e-09	3.318279e-05	-4.370223e-08
6.620716029575869e-09	3.317319e-05	-4.370402e-08
6.621071079799089e-09	3.316352e-05	-4.370597e-08
6.621426130022310e-09	3.315378e-05	-4.370809e-08
6.621781180245529e-09	3.314398e-05	-4.371037e-08
6.622136230468750e-09	3.313412e-05	-4.371282e-08
6.669743652343725e-09	3.148423e-05	-4.399846e-08
6.670085449218728e-09	3.147211e-05	-4.399976e-08
6.670427246093732e-09	3.145999e-05	-4.400093e-08
6.670769042968735e-09	3.144789e-05	-4.400196e-08
6.671110839843739e-09	3.143579e-05	-4.400286e-08
6.671452636718742e-09	3.142371e-05	-4.400362e-08
6.671794433593746e-09	3.141164e-05	-4.400425e-08
6.672136230468749e-09	3.139958e-05	-4.400475e-08
6.684688197544642e-09	3.099473e-05	-4.403264e-08
6.697240164620535e-09	3.058811e-05	-4.406053e-08
6.709792131696428e-09	3.017973e-05	-4.408843e-08
6.722344098772321e-09	2.976959e-05	-4.411632e-08
6.734896065848214e-09	2.935768e-05	-4.414421e-08
6.747448032924107e-09	2.894401e-05	-4.417211e-08
6.760000000000000e-09	2.852857e-05	-4.420000e-08
6.760183105468750e-09	2.852235e-05	-4.420073e-08
6.761857212611606e-09	2.846487e-05	-4.420743e-08
6.763531319754463e-09	2.840742e-05	-4.421412e-08
6.765205426897319e-09	2.834998e-05	-4.422082e-08
6.766879534040175e-09	2.829256e-05	-4.422752e-08
6.768553641183031e-09	2.823517e-05	-4.423421e-08
6.770227748325888e-09	2.817779e-05	-4.424091e-08
6.771901855468744e-09	2.812044e-05	-4.424761e-08
6.809743652343725e-09	2.686742e-05	-4.439897e-08
6.810085449218728e-09	2.685676e-05	-4.439999e-08
6.810427246093732e-09	2.684616e-05	-4.440094e-08
6.810769042968735e-09	2.683563e-05	-4.440183e-08
6.811110839843739e-09	2.682517e-05	-4.440265e-08
6.811452636718742e-09	2.681479e-05	-4.440341e-08
6.811794433593746e-09	2.680447e-05	-4.440411e-08
6.812136230468749e-09	2.679423e-05	-4.440475e-08
6.824517647879457e-09	2.645987e-05	-4.443226e-08
6.836899065290165e-09	2.618895e-05	-4.445978e-08
6.849280482700873e-09	2.598145e-05	-4.448729e-08
6.861661900111580e-09	2.583739e-05	-4.451480e-08
6.874043317522288e-09	2.575676e-05	-4.454232e-08
6.886424734932996e-09	2.573956e-05	-4.456983e-08
6.898806152343704e-09	2.578579e-05	-4.459735e-08
6.900000000000000e-09	2.578632e-05	-4.460000e-08
6.900183105468750e-09	2.578642e-05	-4.460092e-08
6.901857212611606e-09	2.578718e-05	-4.460929e-08
6.903531319754463e-09	2.578794e-05	-4.461765e-08
6.905205426897319e-09	2.578869e-05	-4.462602e-08
6.906879534040175e-09	2.578944e-05	-4.463439e-08
6.908553641183031e-09	2.579019e-05	-4.464276e-08
6.910227748325888e-09	2.579093e-05	-4.465114e-08
6.911901855468744e-09	2.579166e-05	-4.465951e-08
6.939978027343730e-09	2.579526e-05	-4.479989e-08
6.940131835937618e-09	2.579548e-05	-4.480029e-08
6.941689453125185e-09	2.579748e-05	-4.480375e-08
6.943247070312752e-09	2.579985e-05	-4.480722e-08
6.944804687500318e-09	2.580258e-05	-4.481068e-08
6.946362304687886e-09	2.580567e-05	-4.481414e-08
6.947919921875453e-09	2.580912e-05	-4.481760e-08
6.949477539063020e-09	2.581292e-05	-4.482106e-08
6.951035156250586e-09	2.581709e-05	-4.482452e-08
6.962283063616652e-09	2.589054e-05	-4.484952e-08
6.973530970982718e-09	2.594888e-05	-4.487451e-08
6.984778878348783e-09	2.599210e-05	-4.489951e-08
6.996026785714849e-09	2.602021e-05	-4.492450e-08
7.007274693080914e-09	2.603322e-05	-4.494950e-08
7.018522600446980e-09	2.603111e-05	-4.497449e-08
7.029770507813046e-09	2.601389e-05	-4.499949e-08
7.030195661272789e-09	2.601160e-05	-4.500097e-08
7.030620814732533e-09	2.600928e-05	-4.500250e-08
7.031045968192276e-09	2.600691e-05	-4.500409e-08
7.031471121652019e-09	2.600450e-05	-4.500573e-08
7.031896275111762e-09	2.600206e-05	-4.500742e-08
7.032321428571506e-09	2.599957e-05	-4.500918e-08
7.032746582031249e-09	2.599704e-05	-4.501099e-08
7.039460449218746e-09	2.595198e-05	-4.503784e-08
7.046174316406242e-09	2.589230e-05	-4.506470e-08
7.052888183593739e-09	2.581800e-05	-4.509155e-08
7.059602050781235e-09	2.572908e-05	-4.511841e-08
7.066315917968732e-09	2.562554e-05	-4.514526e-08
7.073029785156228e-09	2.550739e-05	-4.517212e-08
7.079743652343725e-09	2.537461e-05	-4.519897e-08
7.080172642299086e-09	2.536549e-05	-4.520018e-08
7.080601632254446e-09	2.535631e-05	-4.520132e-08
7.081030622209807e-09	2.534706e-05	-4.520240e-08
7.081459612165167e-09	2.533777e-05	-4.520342e-08
7.081888602120528e-09	2.532841e-05	-4.520438e-08
7.082317592075888e-09	2.531899e-05	-4.520527e-08
7.082746582031249e-09	2.530952e-05	-4.520610e-08
7.092599400111601e-09	2.506098e-05	-4.522800e-08
7.102452218191953e-09	2.480295e-05	-4.524989e-08
7.112305036272305e-09	2.453541e-05	-4.527179e-08
7.122157854352657e-09	2.425837e-05	-4.529368e-08
7.132010672433009e-09	2.397184e-05	-4.531558e-08
7.141863490513362e-09	2.367580e-05	-4.533747e-08
7.151716308593713e-09	2.337026e-05	-4.535937e-08
7.152326660156213e-09	2.335184e-05	-4.536072e-08
7.170000000000000e-09	2.280585e-05	-4.540000e-08
7.170427246093750e-09	2.279195e-05	-4.540171e-08
7.176774902343747e-09	2.258119e-05	-4.542710e-08
7.183122558593744e-09	2.235765e-05	-4.545249e-08
7.189470214843740e-09	2.212133e-05	-4.547788e-08
7.195817871093737e-09	2.187223e-05	-4.550327e-08
7.202165527343734e-09	2.161036e-05	-4.552866e-08
7.208513183593731e-09	2.133571e-05	-4.555405e-08
7.214860839843727e-09	2.104829e-05	-4.557944e-08
7.215656040736587e-09	2.101166e-05	-4.558286e-08
7.216451241629448e-09	2.097490e-05	-4.558614e-08
7.217246442522308e-09	2.093802e-05	-4.558929e-08
7.218041643415169e-09	2.090101e-05	-4.559230e-08
7.218836844308029e-09	2.086388e-05	-4.559518e-08
7.219632045200890e-09	2.082662e-05	-4.559792e-08
7.220427246093750e-09	2.078923e-05	-4.560053e-08
7.230001046316959e-09	2.031910e-05	-4.561250e-08
7.239574846540168e-09	1.984833e-05	-4.562447e-08
7.249148646763377e-09	1.937690e-05	-4.563644e-08
7.258722446986588e-09	1.890483e-05	-4.564840e-08
7.268296247209797e-09	1.843211e-05	-4.566037e-08
7.277870047433006e-09	1.795875e-05	-4.567234e-08
7.287443847656215e-09	1.748473e-05	-4.568431e-08
7.289246303013363e-09	1.740090e-05	-4.568653e-08
7.291048758370511e-09	1.731824e-05	-4.568877e-08
7.292851213727659e-09	1.723673e-05	-4.569103e-08
7.294653669084806e-09	1.715638e-05	-4.569331e-08
7.296456124441954e-09	1.707718e-05	-4.569560e-08
7.298258579799101e-09	1.699915e-05	-4.569791e-08
7.300061035156249e-09	1.692227e-05	-4.570024e-08
7.303234863281248e-09	1.679035e-05	-4.571294e-08
7.306408691406246e-09	1.666291e-05	-4.572563e-08
7.309582519531245e-09	1.653996e-05	-4.573833e-08
7.312756347656243e-09	1.642149e-05	-4.575103e-08
7.315930175781242e-09	1.630752e-05	-4.576372e-08
7.319104003906240e-09	1.619803e-05	-4.577642e-08
7.322277832031238e-09	1.609302e-05	-4.578911e-08
7.326238141741062e-09	1.596984e-05	-4.580495e-08
7.330198451450884e-09	1.585152e-05	-4.582079e-08
7.334158761160708e-09	1.573807e-05	-4.583663e-08
7.338119070870530e-09	1.562949e-05	-4.585248e-08
7.342079380580354e-09	1.552578e-05	-4.586832e-08
7.346039690290176e-09	1.542693e-05	-4.588416e-08
7.350000000000000e-09	1.533296e-05	-4.590000e-08
7.358850097656245e-09	1.511995e-05	-4.590983e-08
7.367700195312490e-09	1.490578e-05	-4.591967e-08
7.376550292968736e-09	1.469046e-05	-4.592950e-08
7.385400390624982e-09	1.447398e-05	-4.593933e-08
7.394250488281228e-09	1.425634e-05	-4.594917e-08
7.403100585937473e-09	1.403754e-05	-4.595900e-08
7.411950683593718e-09	1.381759e-05	-4.596884e-08
7.440000000000000e-09	1.333947e-05	-4.600000e-08
7.440427246093750e-09	1.333489e-05	-4.600171e-08
7.447472446986604e-09	1.327641e-05	-4.602989e-08
7.454517647879457e-09	1.323337e-05	-4.605807e-08
7.461562848772311e-09	1.320576e-05	-4.608625e-08
7.468608049665164e-09	1.319359e-05	-4.611443e-08
7.475653250558017e-09	1.319686e-05	-4.614261e-08
7.482698451450872e-09	1.321556e-05	-4.617079e-08
7.489743652343725e-09	1.324970e-05	-4.619897e-08
7.490259835379443e-09	1.325223e-05	-4.619994e-08
7.490776018415160e-09	1.325481e-05	-4.620082e-08
7.491292201450878e-09	1.325744e-05	-4.620160e-08
7.491808384486595e-09	1.326012e-05	-4.620227e-08
7.492324567522313e-09	1.326285e-05	-4.620286e-08
7.492840750558030e-09	1.326564e-05	-4.620334e-08
7.493356933593748e-09	1.326847e-05	-4.620373e-08
7.505734514508926e-09	1.335567e-05	-4.621748e-08
7.518112095424106e-09	1.344478e-05	-4.623124e-08
7.530489676339284e-09	1.353580e-05	-4.624499e-08
7.542867257254463e-09	1.362873e-05	-4.625874e-08
7.555244838169641e-09	1.372357e-05	-4.627249e-08
7.567622419084821e-09	1.382031e-05	-4.628625e-08
7.579999999999999e-09	1.391897e-05	-4.630000e-08
7.580427246093749e-09	1.392258e-05	-4.630107e-08
7.619978027343728e-09	1.432203e-05	-4.639994e-08
7.631061662946496e-09	1.444374e-05	-4.642458e-08
7.642145298549264e-09	1.456261e-05	-4.644921e-08
7.653228934152032e-09	1.467864e-05	-4.647384e-08
7.664312569754798e-09	1.479183e-05	-4.649847e-08
7.675396205357566e-09	1.490218e-05	-4.652310e-08
7.686479840960334e-09	1.500969e-05	-4.654773e-08
7.697563476563102e-09	1.511436e-05	-4.657236e-08
7.699340122768372e-09	1.513254e-05	-4.657631e-08
7.701116768973644e-09	1.515050e-05	-4.658026e-08
7.702893415178915e-09	1.516823e-05	-4.658421e-08
7.704670061384186e-09	1.518575e-05	-4.658815e-08
7.706446707589456e-09	1.520304e-05	-4.659210e-08
7.708223353794729e-09	1.522011e-05	-4.659605e-08
7.709999999999999e-09	1.523697e-05	-4.660000e-08
7.717106236049103e-09	1.529902e-05	-4.661421e-08
7.724212472098205e-09	1.534923e-05	-4.662843e-08
7.731318708147309e-09	1.538759e-05	-4.664264e-08
7.738424944196413e-09	1.541410e-05	-4.665685e-08
7.745531180245517e-09	1.542878e-05	-4.667106e-08
7.752637416294620e-09	1.543160e-05	-4.668528e-08
7.759743652343723e-09	1.542258e-05	-4.669949e-08
7.760061035156249e-09	1.542217e-05	-4.670007e-08
7.762537318638390e-09	1.541850e-05	-4.670282e-08
7.765013602120532e-09	1.541507e-05	-4.670557e-08
7.767489885602673e-09	1.541189e-05	-4.670832e-08
7.769966169084816e-09	1.540896e-05	-4.671107e-08
7.772442452566958e-09	1.540628e-05	-4.671382e-08
7.774918736049099e-09	1.540385e-05	-4.671658e-08
7.777395019531241e-09	1.540166e-05	-4.671933e-08
7.787767159598206e-09	1.541649e-05	-4.673085e-08
7.798139299665172e-09	1.544121e-05	-4.674238e-08
7.808511439732137e-09	1.547584e-05	-4.675390e-08
7.818883579799103e-09	1.552037e-05	-4.676543e-08
7.829255719866068e-09	1.557480e-05	-4.677695e-08
7.839627859933034e-09	1.563913e-05	-4.678847e-08
7.849999999999999e-09	1.571335e-05	-4.680000e-08
7.850427246093749e-09	1.571512e-05	-4.680085e-08
7.855728585379461e-09	1.573536e-05	-4.681146e-08
7.861029924665172e-09	1.574932e-05	-4.682206e-08
7.866331263950884e-09	1.575700e-05	-4.683266e-08
7.871632603236595e-09	1.575839e-05	-4.684327e-08
7.876933942522307e-09	1.575350e-05	-4.685387e-08
7.882235281808018e-09	1.574233e-05	-4.686447e-08
7.887536621093730e-09	1.572488e-05	-4.687507e-08
7.900000000000000e-09	1.565008e-05	-4.690000e-08
7.911437290736607e-09	1.552153e-05	-4.691429e-08
7.922874581473213e-09	1.534071e-05	-4.692858e-08
7.934311872209820e-09	1.510763e-05	-4.694288e-08
7.945749162946428e-09	1.482229e-05	-4.695718e-08
7.957186453683035e-09	1.448469e-05	-4.697149e-08
7.968623744419641e-09	1.409482e-05	-4.698580e-08
7.980061035156249e-09	1.365270e-05	-4.700012e-08
7.987195172991071e-09	1.336601e-05	-4.701439e-08
7.994329310825891e-09	1.304587e-05	-4.702866e-08
8.001463448660713e-09	1.269228e-05	-4.704293e-08
8.008597586495535e-09	1.230525e-05	-4.705720e-08
8.015731724330357e-09	1.188476e-05	-4.707146e-08
8.022865862165178e-09	1.143083e-05	-4.708573e-08
8.030000000000000e-09	1.094345e-05	-4.710000e-08
8.042163434709815e-09	9.956957e-06	-4.711351e-08
8.054326869419630e-09	8.935367e-06	-4.712703e-08
8.066490304129444e-09	7.878680e-06	-4.714055e-08
8.078653738839261e-09	6.786897e-06	-4.715406e-08
8.090817173549076e-09	5.660018e-06	-4.716758e-08
8.102980608258891e-09	4.498042e-06	-4.718109e-08
8.115144042968706e-09	3.300969e-06	-4.719460e-08
8.118148367745496e-09	3.014098e-06	-4.719873e-08
8.121152692522287e-09	2.727396e-06	-4.720328e-08
8.124157017299077e-09	2.440862e-06	-4.720825e-08
8.127161342075869e-09	2.154497e-06	-4.721364e-08
8.130165666852660e-09	1.868301e-06	-4.721945e-08
8.133169991629450e-09	1.582273e-06	-4.722569e-08
8.136174316406241e-09	1.296414e-06	-4.723235e-08
8.141224539620527e-09	8.158028e-07	-4.724296e-08
8.146274762834815e-09	3.399371e-07	-4.725326e-08
8.151324986049102e-09	-1.311836e-07	-4.726324e-08
8.156375209263388e-09	-5.975591e-07	-4.727291e-08
8.161425432477674e-09	-1.059190e-06	-4.728225e-08
8.166475655691963e-09	-1.516075e-06	-4.729128e-08
8.171525878906249e-09	-1.968215e-06	-4.730000e-08
8.183994489397314e-09	-3.085705e-06	-4.730000e-08
8.196463099888378e-09	-4.143162e-06	-4.730000e-08
8.208931710379443e-09	-5.140586e-06	-4.730000e-08
8.221400320870510e-09	-6.077977e-06	-4.730000e-08
8.233868931361574e-09	-6.955335e-06	-4.730000e-08
8.246337541852639e-09	-7.772660e-06	-4.730000e-08
8.258806152343704e-09	-8.529953e-06	-4.730000e-08
8.262333635602636e-09	-8.717151e-06	-4.730745e-08
8.265861118861571e-09	-8.897038e-06	-4.731522e-08
8.269388602120503e-09	-9.069612e-06	-4.732330e-08
8.272916085379438e-09	-9.234874e-06	-4.733169e-08
8.276443568638370e-09	-9.392824e-06	-4.734040e-08
8.279971051897304e-09	-9.543462e-06	-4.734942e-08
8.283498535156237e-09	-9.686788e-06	-4.735875e-08
8.299978027343728e-09	-1.030458e-05	-4.739994e-08
8.309840959821497e-09	-1.064086e-05	-4.741092e-08
8.319703892299265e-09	-1.095837e-05	-4.742189e-08
8.329566824777034e-09	-1.125711e-05	-4.743285e-08
8.339429757254801e-09	-1.153707e-05	-4.744382e-08
8.349292689732569e-09	-1.179826e-05	-4.745478e-08
8.359155622210338e-09	-1.204068e-05	-4.746573e-08
8.369018554688106e-09	-1.226433e-05	-4.747669e-08
8.369628906250606e-09	-1.227760e-05	-4.747736e-08
8.380161481585340e-09	-1.247456e-05	-4.748613e-08
8.390694056920075e-09	-1.269844e-05	-4.749323e-08
8.401226632254809e-09	-1.294925e-05	-4.749866e-08
8.411759207589545e-09	-1.322699e-05	-4.750243e-08
8.422291782924279e-09	-1.353165e-05	-4.750453e-08
8.432824358259014e-09	-1.386325e-05	-4.750496e-08
8.443356933593748e-09	-1.422176e-05	-4.750373e-08
8.457173200334819e-09	-1.481508e-05	-4.752088e-08
8.470989467075889e-09	-1.551214e-05	-4.753689e-08
8.484805733816960e-09	-1.631293e-05	-4.755178e-08
8.498622000558032e-09	-1.721746e-05	-4.756553e-08
8.512438267299103e-09	-1.822572e-05	-4.757815e-08
8.526254534040173e-09	-1.933772e-05	-4.758964e-08
8.540070800781244e-09	-2.055346e-05	-4.760000e-08
8.554276297433026e-09	-2.175028e-05	-4.759916e-08
8.568481794084809e-09	-2.294689e-05	-4.760215e-08
8.582687290736591e-09	-2.414331e-05	-4.760895e-08
8.596892787388372e-09	-2.533952e-05	-4.761958e-08
8.611098284040154e-09	-2.653554e-05	-4.763403e-08
8.625303780691937e-09	-2.773136e-05	-4.765230e-08
8.639509277343719e-09	-2.892698e-05	-4.767439e-08
8.649281180245505e-09	-2.980525e-05	-4.768482e-08
8.659053083147292e-09	-3.066413e-05	-4.769299e-08
8.668824986049078e-09	-3.150364e-05	-4.769890e-08
8.678596888950866e-09	-3.232377e-05	-4.770256e-08
8.688368791852651e-09	-3.312453e-05	-4.770396e-08
8.698140694754439e-09	-3.390590e-05	-4.770311e-08
8.707912597656225e-09	-3.466790e-05	-4.770000e-08
8.718717564174079e-09	-3.535692e-05	-4.771096e-08
8.729522530691936e-09	-3.592879e-05	-4.772216e-08
8.740327497209790e-09	-3.638353e-05	-4.773359e-08
8.751132463727646e-09	-3.672112e-05	-4.774527e-08
8.761937430245501e-09	-3.694158e-05	-4.775718e-08
8.772742396763357e-09	-3.704489e-05	-4.776933e-08
8.783547363281212e-09	-3.703107e-05	-4.778172e-08
8.796491699218712e-09	-3.689893e-05	-4.778967e-08
8.809436035156211e-09	-3.667187e-05	-4.779584e-08
8.822380371093712e-09	-3.634990e-05	-4.780023e-08
8.835324707031211e-09	-3.593301e-05	-4.780285e-08
8.848269042968711e-09	-3.542120e-05	-4.780368e-08
8.861213378906210e-09	-3.481447e-05	-4.780273e-08
8.874157714843711e-09	-3.411283e-05	-4.780000e-08
8.886887904575847e-09	-3.335325e-05	-4.780000e-08
8.899618094307984e-09	-3.252564e-05	-4.780000e-08
8.912348284040120e-09	-3.163002e-05	-4.780000e-08
8.925078473772256e-09	-3.066638e-05	-4.780000e-08
8.937808663504392e-09	-2.963472e-05	-4.780000e-08
8.950538853236529e-09	-2.853504e-05	-4.780000e-08
8.963269042968665e-09	-2.736734e-05	-4.780000e-08
8.980427246093750e-09	-2.587790e-05	-4.780048e-08
8.992704031808029e-09	-2.482420e-05	-4.781412e-08
9.004980817522308e-09	-2.376233e-05	-4.782776e-08
9.017257603236587e-09	-2.269229e-05	-4.784140e-08
9.029534388950868e-09	-2.161406e-05	-4.785504e-08
9.041811174665147e-09	-2.052766e-05	-4.786868e-08
9.054087960379426e-09	-1.943309e-05	-4.788232e-08
9.066364746093705e-09	-1.833034e-05	-4.789596e-08
9.077565220424063e-09	-1.732764e-05	-4.789778e-08
9.088765694754422e-09	-1.641506e-05	-4.789919e-08
9.099966169084779e-09	-1.559259e-05	-4.790018e-08
9.111166643415137e-09	-1.486023e-05	-4.790075e-08
9.122367117745494e-09	-1.421799e-05	-4.790092e-08
9.133567592075853e-09	-1.366587e-05	-4.790066e-08
9.144768066406211e-09	-1.320386e-05	-4.790000e-08
9.154882463727634e-09	-1.297743e-05	-4.790000e-08
9.164996861049058e-09	-1.283284e-05	-4.790000e-08
9.175111258370481e-09	-1.277010e-05	-4.790000e-08
9.185225655691903e-09	-1.278920e-05	-4.790000e-08
9.195340053013327e-09	-1.289015e-05	-4.790000e-08
9.205454450334751e-09	-1.307295e-05	-4.790000e-08
9.215568847656174e-09	-1.333759e-05	-4.790000e-08
9.227688685825810e-09	-1.370914e-05	-4.790000e-08
9.239808523995448e-09	-1.422701e-05	-4.790000e-08
9.251928362165084e-09	-1.489120e-05	-4.790000e-08
9.264048200334720e-09	-1.570170e-05	-4.790000e-08
9.276168038504356e-09	-1.665852e-05	-4.790000e-08
9.288287876673994e-09	-1.776165e-05	-4.790000e-08
9.300407714843630e-09	-1.901111e-05	-4.790000e-08
9.312004394531124e-09	-2.037282e-05	-4.790000e-08
9.323601074218618e-09	-2.177370e-05	-4.790000e-08
9.335197753906112e-09	-2.321375e-05	-4.790000e-08
9.346794433593606e-09	-2.469298e-05	-4.790000e-08
9.358391113281100e-09	-2.621137e-05	-4.790000e-08
9.369987792968594e-09	-2.776893e-05	-4.790000e-08
9.381584472656088e-09	-2.936566e-05	-4.790000e-08
9.398238351004293e-09	-3.157734e-05	-4.790000e-08
9.414892229352500e-09	-3.357464e-05	-4.790000e-08
9.431546107700705e-09	-3.535757e-05	-4.790000e-08
9.448199986048911e-09	-3.692614e-05	-4.790000e-08
9.464853864397116e-09	-3.828033e-05	-4.790000e-08
9.481507742745323e-09	-3.942015e-05	-4.790000e-08
9.498161621093528e-09	-4.034560e-05	-4.790000e-08
9.511240583147092e-09	-4.077689e-05	-4.790000e-08
9.524319545200657e-09	-4.102205e-05	-4.790000e-08
9.537398507254221e-09	-4.108108e-05	-4.790000e-08
9.550477469307787e-09	-4.095397e-05	-4.790000e-08
9.563556431361352e-09	-4.064072e-05	-4.790000e-08
9.576635393414916e-09	-4.014135e-05	-4.790000e-08
9.589714355468480e-09	-3.945584e-05	-4.790000e-08
9.603752441405973e-09	-3.850328e-05	-4.790000e-08
9.611784667968509e-09	-3.785393e-05	-4.789663e-08
9.619816894531046e-09	-3.714132e-05	-4.788962e-08
9.627849121093582e-09	-3.636544e-05	-4.787898e-08
9.635881347656120e-09	-3.552630e-05	-4.786470e-08
9.643913574218655e-09	-3.462389e-05	-4.784678e-08
9.651945800781193e-09	-3.365822e-05	-4.782524e-08
9.659978027343729e-09	-3.262928e-05	-4.780005e-08
9.669666573660782e-09	-3.132337e-05	-4.780003e-08
9.679355119977837e-09	-3.000755e-05	-4.780001e-08
9.689043666294890e-09	-2.868183e-05	-4.780000e-08
9.698732212611945e-09	-2.734621e-05	-4.779999e-08
9.708420758928999e-09	-2.600068e-05	-4.779999e-08
9.718109305246054e-09	-2.464525e-05	-4.779999e-08
9.727797851563107e-09	-2.327991e-05	-4.780000e-08
9.737737862723815e-09	-2.185725e-05	-4.780000e-08
9.747677873884526e-09	-2.045388e-05	-4.780000e-08
9.757617885045234e-09	-1.906978e-05	-4.780000e-08
9.767557896205944e-09	-1.770497e-05	-4.780000e-08
9.777497907366653e-09	-1.635944e-05	-4.780000e-08
9.787437918527363e-09	-1.503319e-05	-4.780000e-08
9.797377929688071e-09	-1.372623e-05	-4.780000e-08
9.807492327009495e-09	-1.253365e-05	-4.780000e-08
9.817606724330918e-09	-1.145290e-05	-4.780000e-08
9.827721121652342e-09	-1.048400e-05	-4.780000e-08
9.837835518973764e-09	-9.626946e-06	-4.780000e-08
9.847949916295187e-09	-8.881731e-06	-4.780000e-08
9.858064313616611e-09	-8.248358e-06	-4.780000e-08
9.868178710938034e-09	-7.726827e-06	-4.780000e-08
9.878656877790636e-09	-7.295344e-06	-4.779632e-08
9.889135044643239e-09	-6.971155e-06	-4.778911e-08
9.899613211495840e-09	-6.754259e-06	-4.777836e-08
9.910091378348443e-09	-6.644658e-06	-4.776408e-08
9.920569545201045e-09	-6.642350e-06	-4.774625e-08
9.931047712053648e-09	-6.747336e-06	-4.772489e-08
9.941525878906249e-09	-6.959615e-06	-4.770000e-08
9.949722028459816e-09	-7.192298e-06	-4.770000e-08
9.957918178013383e-09	-7.490208e-06	-4.770000e-08
9.966114327566950e-09	-7.853344e-06	-4.770000e-08
9.974310477120519e-09	-8.281706e-06	-4.770000e-08
9.982506626674086e-09	-8.775296e-06	-4.770000e-08
9.990702776227653e-09	-9.334111e-06	-4.770000e-08
9.998898925781220e-09	-9.958154e-06	-4.770000e-08
9.999509277343719e-09	-1.000636e-05	-4.770000e-08
1.000000000000000e-08	-1.004535e-05	-4.770000e-08
