# FBK gain layer profile
"BoronActiveConcentration"
0 3.04687e+12
0.0100841 3.06824e+12
0.020305 3.09933e+12
0.0306645 3.14457e+12
0.0411644 3.21033e+12
0.0518067 3.30582e+12
0.0625933 3.44437e+12
0.0735262 3.64512e+12
0.0846073 3.93558e+12
0.0958387 4.35517e+12
0.107222 4.96015e+12
0.11876 5.83066e+12
0.130455 7.08039e+12
0.142308 8.87e+12
0.154322 1.14256e+13
0.166498 1.50642e+13
0.17884 2.02274e+13
0.191349 2.75283e+13
0.204028 3.78118e+13
0.216878 5.22363e+13
0.229903 7.23789e+13
0.243105 1.00371e+14
0.256485 1.39071e+14
0.270047 1.9228e+14
0.283793 2.65007e+14
0.297725 3.63785e+14
0.311846 4.97046e+14
0.326159 6.75541e+14
0.340665 9.12803e+14
0.355369 1.22562e+15
0.370271 1.6345e+15
0.385376 2.16402e+15
0.400686 2.84308e+15
0.416203 3.70485e+15
0.43193 4.78634e+15
0.447871 6.12752e+15
0.464028 7.76972e+15
0.480404 9.7533e+15
0.497002 1.21144e+16
0.513826 1.4881e+16
0.530877 1.80679e+16
0.548159 2.16714e+16
0.565676 2.56637e+16
0.58343 2.99884e+16
0.601425 3.45557e+16
0.619665 3.92416e+16
0.638151 4.38887e+16
0.656888 4.83111e+16
0.675879 5.2303e+16
0.695128 5.56523e+16
0.714637 5.81562e+16
0.734411 5.96396e+16
0.754454 5.99733e+16
0.774768 5.90899e+16
0.795357 5.69951e+16
0.816226 5.37721e+16
0.837377 4.95774e+16
0.858816 4.46293e+16
0.880545 3.9188e+16
0.902569 3.35321e+16
0.924891 2.79322e+16
0.947516 2.26274e+16
0.970448 1.78068e+16
0.993691 1.35982e+16
1.01725 1.68855e+16
1.04113 1.29351e+16
1.06533 9.33423e+15
1.08986 6.62783e+15
1.11472 4.78645e+15
1.13992 3.44386e+15
1.16546 2.42905e+15
1.19134 1.81923e+15
1.21758 1.26766e+15
1.24418 8.79622e+14
1.27113 6.85965e+14
1.29845 5.76185e+14
1.32614 4.16653e+14
1.35421 3.40825e+14
1.38265 3.03543e+14
1.41148 2.47746e+14
1.44071 2.18584e+14
1.47033 1.89371e+14
1.50035 1.68153e+14
1.53078 1.44508e+14
1.56162 1.23171e+14
1.59287 1.08106e+14
1.62456 9.53806e+13
1.65667 8.79441e+13
1.68922 8.34583e+13
1.72221 7.87412e+13
1.75564 7.19454e+13
1.78953 6.3929e+13
1.82388 5.97134e+13
1.85869 5.55806e+13
1.89398 5.15407e+13
1.92975 4.79397e+13
1.966 4.42278e+13
2.00274 4.06059e+13
2.03998 3.82347e+13
2.07772 3.62533e+13
2.11598 3.47229e+13
2.15476 3.30244e+13
2.19406 3.10912e+13
2.23389 2.93132e+13
2.27426 2.81071e+13
2.31519 2.65661e+13
2.35666 2.50141e+13
2.3987 2.33107e+13
2.44131 2.17186e+13
2.4845 2.07562e+13
2.52827 2.00219e+13
2.57264 1.89521e+13
2.6176 1.78299e+13
2.66318 1.67654e+13
2.70937 1.57729e+13
2.7562 1.48809e+13
2.80365 1.43953e+13
2.85175 1.404e+13
2.9005 1.35517e+13
2.94992 3e+12
